<?xml version="1.0" encoding="UTF-8" standalone="no"?>
<!-- Created with Inkscape (http://www.inkscape.org/) -->

<svg
   width="51.499657mm"
   height="9.1757498mm"
   viewBox="0 0 51.499657 9.1757498"
   version="1.1"
   id="svg8"
   inkscape:version="1.1.1 (3bf5ae0d25, 2021-09-20)"
   sodipodi:docname="kazo_blanc.svg"
   xmlns:inkscape="http://www.inkscape.org/namespaces/inkscape"
   xmlns:sodipodi="http://sodipodi.sourceforge.net/DTD/sodipodi-0.dtd"
   xmlns="http://www.w3.org/2000/svg"
   xmlns:svg="http://www.w3.org/2000/svg"
   xmlns:rdf="http://www.w3.org/1999/02/22-rdf-syntax-ns#"
   xmlns:cc="http://creativecommons.org/ns#"
   xmlns:dc="http://purl.org/dc/elements/1.1/">
  <defs
     id="defs2" />
  <sodipodi:namedview
     id="base"
     pagecolor="#ffffff"
     bordercolor="#666666"
     borderopacity="1.0"
     inkscape:pageopacity="0.0"
     inkscape:pageshadow="2"
     inkscape:zoom="1.4"
     inkscape:cx="304.64286"
     inkscape:cy="-53.214286"
     inkscape:document-units="mm"
     inkscape:current-layer="layer1"
     showgrid="false"
     fit-margin-top="0"
     fit-margin-left="0"
     fit-margin-right="0"
     fit-margin-bottom="0"
     inkscape:window-width="2560"
     inkscape:window-height="1422"
     inkscape:window-x="0"
     inkscape:window-y="0"
     inkscape:window-maximized="1"
     inkscape:pagecheckerboard="0" />
  <metadata
     id="metadata5">
    <rdf:RDF>
      <cc:Work
         rdf:about="">
        <dc:format>image/svg+xml</dc:format>
        <dc:type
           rdf:resource="http://purl.org/dc/dcmitype/StillImage" />
      </cc:Work>
    </rdf:RDF>
  </metadata>
  <g
     inkscape:label="Calque 1"
     inkscape:groupmode="layer"
     id="layer1"
     transform="translate(-24.946281,-49.188729)">
    <g
       aria-label="KAZOMAT'"
       transform="scale(0.26458333)"
       style="font-style:normal;font-weight:normal;font-size:40px;line-height:125%;font-family:sans-serif;letter-spacing:0px;word-spacing:0px;fill:#eeeeee;fill-opacity:1;stroke:none;stroke-width:1px;stroke-linecap:butt;stroke-linejoin:miter;stroke-opacity:1"
       id="flowRoot4518">
      <path
         d="m 100.28516,209.15016 q 1.24,-1.56 4.92,-8.12 2.52,-4.52 3.96,-6.32 3.04,-3.92 5.92,-3.92 1.24,0 1.84,0.68 0.56,0.68 -0.04,1.4 -1.16,1.4 -4.48,5.12 l -4.08,4.56 q -0.28,0.24 -0.32,0.4 -0.12,0.28 0.2,0.28 0.88,0 1.68,1.44 0.36,0.64 2.36,5.16 1.08,2.44 2.48,4.2 1.96,2.56 3.84,2.72 0.44,0 1.04,-0.08 l 0.6,-0.04 q 0.24,0 -1.64,1.08 -0.36,0.2 -0.8,0.2 -2.36,0 -7.4,-4.64 -4.36,-4 -5.8,-6.4 -0.04,-0.04 -0.12,-0.04 -0.72,0 -3.76,6.08 0,0.36 0.08,1.04 0.08,0.68 0.08,1.04 0,1 -0.880004,2.2 -0.44,0.6 -0.6,0.6 -0.12,0 -0.68,-0.4 -1.04,-0.6 -3.76,-2.64 -0.12,-0.12 -0.4,-0.16 -0.24,-0.08 -0.24,-0.2 0.24,-0.92 0.56,-2.56 0.4,-3.4 0.56,-10.36 0.12,-6.12 0.04,-8.32 -0.04,-0.68 0.12,-2.16 0.12,-1.28 0,-3.16 0.88,-0.2 1.68,1.44 0.6,1.16 0.84,2.48 0.64,3.4 2.200004,17.4 z"
         style="font-style:normal;font-variant:normal;font-weight:normal;font-stretch:normal;font-size:40px;font-family:Flow;-inkscape-font-specification:'Flow, Normal';font-variant-ligatures:normal;font-variant-caps:normal;font-variant-numeric:normal;font-feature-settings:normal;text-align:start;writing-mode:lr-tb;text-anchor:start;fill:#eeeeee;fill-opacity:1"
         id="path4526"
         inkscape:connector-curvature="0" />
      <path
         d="m 137.46328,205.39016 q -3.44,-8.96 -4.12,-8.96 -1.08,0 -3.96,6.88 -2.24,5.28 -3.2,8.36 1.52,-0.52 4.72,-3.04 3.04,-2.36 5.4,-2.92 0.32,-0.08 1.16,-0.32 z m -13.92,12.28 q -0.04,-1.12 0.48,-4.2 -2.16,-0.24 -2.16,-0.88 0,-0.04 0.28,0.16 0.32,0.16 0.6,0.16 0.16,0 1.48,-0.56 1.56,-8.32 3.92,-15.16 3,-8.68 5.4,-8.64 2.2,0.04 3.76,4.96 1.12,3.88 3.32,11.6 1.64,0.24 3.48,1.64 2.48,1.88 2.48,2.24 0,0.2 -0.56,0.2 -1,0 -4.4,-0.76 2,6.36 4.2,10.52 0.48,0.92 0.48,1.28 0,0.36 -0.28,0.36 -0.56,0 -2.52,-1.76 -1.4,-1.28 -5.08,-10.88 -4.6,0.12 -12.76,5.56 -0.76,2.8 -0.76,4.36 z"
         style="font-style:normal;font-variant:normal;font-weight:normal;font-stretch:normal;font-size:40px;font-family:Flow;-inkscape-font-specification:'Flow, Normal';font-variant-ligatures:normal;font-variant-caps:normal;font-variant-numeric:normal;font-feature-settings:normal;text-align:start;writing-mode:lr-tb;text-anchor:start;fill:#eeeeee;fill-opacity:1"
         id="path4528"
         inkscape:connector-curvature="0" />
      <path
         d="m 156.99141,191.23016 q 11.76,-5.32 14.36,-5.32 1.68,0 1.68,1.44 0,2.84 -6.64,11.72 -1.96,2.52 -5.88,7.64 -3.16,4.16 -3.52,5.68 -0.12,0.44 1.28,0.44 0.92,0 1.88,-0.08 l 1.96,-0.16 q 2.6,-0.12 6.44,1.12 4,1.28 6.16,1.28 1.84,0 4.16,-0.92 1.52,-0.6 1.64,-0.6 0.88,0 -0.92,0.8 -1.44,0.64 -2.72,1.08 -2.04,0.68 -3.6,0.68 -1.8,0 -5.56,-0.76 -3.76,-0.76 -5.8,-0.8 -4.36,-0.08 -6.92,0.8 -1.28,0.44 -3.6,1.88 -1.28,0.8 -2.12,0.8 -1,0 -1,-1.08 0,-2.04 3.52,-7.4 1.92,-2.92 5.16,-5.72 5.48,-4.72 9.16,-9.72 1.76,-2.36 1.76,-3.52 0,-1.08 -1.52,-1.08 -1.72,0 -5.48,1.4 -4.32,1.6 -5.48,1.6 -0.24,0 -0.24,-0.08 0,-0.28 1.84,-1.12 z"
         style="font-style:normal;font-variant:normal;font-weight:normal;font-stretch:normal;font-size:40px;font-family:Flow;-inkscape-font-specification:'Flow, Normal';font-variant-ligatures:normal;font-variant-caps:normal;font-variant-numeric:normal;font-feature-settings:normal;text-align:start;writing-mode:lr-tb;text-anchor:start;fill:#eeeeee;fill-opacity:1"
         id="path4530"
         inkscape:connector-curvature="0" />
      <path
         d="m 191.29578,188.71016 q -9.12,2.16 -9.12,12.32 0,1.04 0.12,2.36 1.36,15.12 10.68,14.48 5.64,-0.4 8.68,-4.36 2.92,-3.76 2.68,-9.52 -0.16,-4.32 -1.4,-7.44 -1.68,-4.36 -5.08,-5.12 -3.4,-0.76 -3.2,-0.76 -0.08,0 -0.08,0.04 0,1.48 2.48,3.28 2.68,1.92 2.96,3.24 0.12,0.52 0.68,6.08 0.04,0.52 0.04,1.04 0,3.12 -1.76,7.04 -2.28,5.08 -5.24,5.04 -3.88,-0.08 -6.12,-4.52 -1.68,-3.32 -2,-7.84 -0.16,-2.4 -0.16,-3.84 0,-4.12 1,-6.44 1.36,-3.12 4.76,-4.12 3,-0.88 3,-1.24 0,-0.4 -2.92,0.28 z"
         style="font-style:normal;font-variant:normal;font-weight:normal;font-stretch:normal;font-size:40px;font-family:Flow;-inkscape-font-specification:'Flow, Normal';font-variant-ligatures:normal;font-variant-caps:normal;font-variant-numeric:normal;font-feature-settings:normal;text-align:start;writing-mode:lr-tb;text-anchor:start;fill:#eeeeee;fill-opacity:1"
         id="path4532"
         inkscape:connector-curvature="0" />
      <path
         d="m 207.48578,192.75016 q 0.12,2.92 -0.08,10.32 -0.28,8.84 -0.8,10.44 -0.28,0.84 -0.28,0.96 0,0.08 0.32,0.2 0.32,0.12 0.36,0.12 1.4,0.92 3.8,2.72 0.52,0.4 0.72,0.4 0.16,0 0.6,-0.6 0.88,-1.2 0.88,-2.24 0,-0.32 -0.08,-1.16 -1.56,-16.76 -2.72,-22.56 -0.2,-0.92 -0.48,-0.92 -0.28,0 -1.08,0.24 -0.76,0.24 -0.88,0.4 -0.32,0.44 -0.28,1.68 z m 21.24,-4.88 q 1.88,-1.6 1.88,-1.88 -0.04,-0.08 -0.12,-0.08 -1.32,0 -3.6,2.2 -1.72,1.68 -2.84,3.32 -1,1.44 -3.24,5.36 -1.52,2.64 -1.84,2.64 -0.28,0 -2.08,-2.96 -2.28,-3.72 -3.92,-5.6 -2.68,-3.04 -4.96,-3.12 -0.88,-0.04 -1.6,0 -0.48,0 -0.48,0.08 0,0.12 2.4,1.28 2.44,1.16 2.88,1.68 0.44,0.52 2.84,4.2 0.36,0.56 3.68,6.8 2,3.76 2.96,3.68 0.72,-0.04 2.04,-2.92 0.56,-1.2 2.08,-5.24 1,-2.64 1,-2.4 0.12,3.56 -0.04,9.12 -0.24,7.6 -0.8,9.28 -0.28,0.84 -0.28,0.96 0,0.08 0.32,0.2 0.32,0.12 0.36,0.12 1.4,0.92 3.8,2.72 0.52,0.4 0.72,0.4 0.16,0 0.6,-0.6 0.88,-1.2 0.88,-2.24 0,-0.32 -0.08,-1.16 -1.6,-17.04 -2.72,-22.56 -0.04,-0.2 -0.08,-0.92 -0.04,0.04 -0.88,0.24 -0.4,-0.16 -0.4,-0.56 0,-0.76 1.52,-2.04 z"
         style="font-style:normal;font-variant:normal;font-weight:normal;font-stretch:normal;font-size:40px;font-family:Flow;-inkscape-font-specification:'Flow, Normal';font-variant-ligatures:normal;font-variant-caps:normal;font-variant-numeric:normal;font-feature-settings:normal;text-align:start;writing-mode:lr-tb;text-anchor:start;fill:#eeeeee;fill-opacity:1"
         id="path4534"
         inkscape:connector-curvature="0" />
      <path
         d="m 248.55703,205.39016 q -3.44,-8.96 -4.12,-8.96 -1.08,0 -3.96,6.88 -2.24,5.28 -3.2,8.36 1.52,-0.52 4.72,-3.04 3.04,-2.36 5.4,-2.92 0.32,-0.08 1.16,-0.32 z m -13.92,12.28 q -0.04,-1.12 0.48,-4.2 -2.16,-0.24 -2.16,-0.88 0,-0.04 0.28,0.16 0.32,0.16 0.6,0.16 0.16,0 1.48,-0.56 1.56,-8.32 3.92,-15.16 3,-8.68 5.4,-8.64 2.2,0.04 3.76,4.96 1.12,3.88 3.32,11.6 1.64,0.24 3.48,1.64 2.48,1.88 2.48,2.24 0,0.2 -0.56,0.2 -1,0 -4.4,-0.76 2,6.36 4.2,10.52 0.48,0.92 0.48,1.28 0,0.36 -0.28,0.36 -0.56,0 -2.52,-1.76 -1.4,-1.28 -5.08,-10.88 -4.6,0.12 -12.76,5.56 -0.76,2.8 -0.76,4.36 z"
         style="font-style:normal;font-variant:normal;font-weight:normal;font-stretch:normal;font-size:40px;font-family:Flow;-inkscape-font-specification:'Flow, Normal';font-variant-ligatures:normal;font-variant-caps:normal;font-variant-numeric:normal;font-feature-settings:normal;text-align:start;writing-mode:lr-tb;text-anchor:start;fill:#eeeeee;fill-opacity:1"
         id="path4536"
         inkscape:connector-curvature="0" />
      <path
         d="m 261.16516,190.79016 q 0.6,0.08 1.2,0.08 1.36,0 4.12,-0.68 2.76,-0.72 4.2,-0.68 3.24,0.08 6.64,1.4 1.36,0.52 1.72,0.52 0.12,0 0.12,-0.08 0,-0.24 -1.36,-1.24 -3.12,-2.28 -6.92,-2.28 -1.6,0 -4.44,0.92 -2.96,1 -4.28,1.04 -2.88,0.12 -2.88,0.48 0,0.28 1.88,0.52 z m 6.44,2.4 q 0.12,2.64 -0.08,10.12 -0.24,8.64 -0.8,10.28 -0.28,0.8 -0.28,0.92 0,0.12 0.28,0.2 0.32,0.08 0.4,0.16 1.36,0.88 3.76,2.68 0.48,0.36 0.68,0.36 0.2,0 0.6,-0.56 0.84,-1.16 0.84,-2.24 0,-0.72 -0.04,-1.16 -1.52,-16.44 -2.68,-22.16 -0.2,-0.92 -0.48,-0.92 -0.32,0 -1,0.2 -0.8,0.24 -0.92,0.44 -0.36,0.4 -0.28,1.68 z"
         style="font-style:normal;font-variant:normal;font-weight:normal;font-stretch:normal;font-size:40px;font-family:Flow;-inkscape-font-specification:'Flow, Normal';font-variant-ligatures:normal;font-variant-caps:normal;font-variant-numeric:normal;font-feature-settings:normal;text-align:start;writing-mode:lr-tb;text-anchor:start;fill:#eeeeee;fill-opacity:1"
         id="path4538"
         inkscape:connector-curvature="0" />
      <path
         d="m 285.36953,197.35016 q 1.8,-0.76 2.76,-2.8 0.8,-1.72 0.8,-3.92 0,-2.96 -1.4,-4.16 0.32,0.52 0.32,1.04 0,1.16 -1.2,1.96 -1.04,0.68 -2.28,0.72 -1.56,0.04 -1.56,-0.96 0,-0.92 1.36,-3.32 -3.4,2.28 -3.4,4.48 0,1.76 2.28,1.8 1.96,0.04 3.48,-0.68 0.52,0.96 0.52,1.88 0,1.76 -1.68,3.96 z"
         style="font-style:normal;font-variant:normal;font-weight:normal;font-stretch:normal;font-size:40px;font-family:Flow;-inkscape-font-specification:'Flow, Normal';font-variant-ligatures:normal;font-variant-caps:normal;font-variant-numeric:normal;font-feature-settings:normal;text-align:start;writing-mode:lr-tb;text-anchor:start;fill:#eeeeee;fill-opacity:1"
         id="path4540"
         inkscape:connector-curvature="0" />
    </g>
  </g>
</svg>
