<?xml version="1.0" encoding="UTF-8" standalone="no"?>
<!-- Criado com Inkscape (http://www.inkscape.org/) -->

<svg
   xmlns:dc="http://purl.org/dc/elements/1.1/"
   xmlns:cc="http://creativecommons.org/ns#"
   xmlns:rdf="http://www.w3.org/1999/02/22-rdf-syntax-ns#"
   xmlns:svg="http://www.w3.org/2000/svg"
   xmlns="http://www.w3.org/2000/svg"
   xmlns:xlink="http://www.w3.org/1999/xlink"
   xmlns:sodipodi="http://sodipodi.sourceforge.net/DTD/sodipodi-0.dtd"
   xmlns:inkscape="http://www.inkscape.org/namespaces/inkscape"
   width="418.94925"
   height="249.49236"
   id="svg2621"
   sodipodi:version="0.32"
   inkscape:version="0.48.1 r9760"
   version="1.0"
   sodipodi:docname="valessiobrito_wooden_chair.svg"
   inkscape:output_extension="org.inkscape.output.svg.inkscape"
   inkscape:export-filename="/home/valessio/Desktop/banco_madeira.png"
   inkscape:export-xdpi="59.099998"
   inkscape:export-ydpi="59.099998"
   sodipodi:modified="TRUE">
  <defs
     id="defs2623">
    <linearGradient
       id="linearGradient3796">
      <stop
         id="stop3798"
         offset="0"
         style="stop-color:#281400;stop-opacity:1;" />
      <stop
         id="stop3800"
         offset="1"
         style="stop-color:#453000;stop-opacity:1" />
    </linearGradient>
    <linearGradient
       id="linearGradient2797">
      <stop
         style="stop-color:#663714;stop-opacity:1;"
         offset="0"
         id="stop2799" />
      <stop
         style="stop-color:#876d3d;stop-opacity:1;"
         offset="1"
         id="stop2801" />
    </linearGradient>
    <linearGradient
       inkscape:collect="always"
       xlink:href="#linearGradient2797"
       id="linearGradient4783"
       gradientUnits="userSpaceOnUse"
       x1="261.83698"
       y1="455.54358"
       x2="261.83698"
       y2="512.34375" />
    <linearGradient
       inkscape:collect="always"
       xlink:href="#linearGradient2797"
       id="linearGradient4787"
       gradientUnits="userSpaceOnUse"
       x1="262.35764"
       y1="461.27097"
       x2="262.35764"
       y2="504.48978" />
    <linearGradient
       inkscape:collect="always"
       xlink:href="#linearGradient2797"
       id="linearGradient4803"
       gradientUnits="userSpaceOnUse"
       x1="214.51636"
       y1="116.77625"
       x2="214.51636"
       y2="157.92412"
       gradientTransform="translate(140,263.79074)" />
    <radialGradient
       inkscape:collect="always"
       xlink:href="#linearGradient2797"
       id="radialGradient4807"
       gradientUnits="userSpaceOnUse"
       gradientTransform="matrix(-3.0520427e-5,-10.739687,6.7242548,-1.910806e-5,-2031.7011,2613.7004)"
       cx="209.67389"
       cy="380.19101"
       fx="209.67381"
       fy="380.19104"
       r="6.7236271" />
    <radialGradient
       inkscape:collect="always"
       xlink:href="#linearGradient2797"
       id="radialGradient4811"
       gradientUnits="userSpaceOnUse"
       gradientTransform="matrix(1.2020531,-0.02180776,0.01173896,0.6469288,93.659994,250.78432)"
       cx="226.92119"
       cy="176.87444"
       fx="226.92119"
       fy="176.87444"
       r="163.52893" />
    <radialGradient
       inkscape:collect="always"
       xlink:href="#linearGradient2797"
       id="radialGradient4815"
       gradientUnits="userSpaceOnUse"
       gradientTransform="matrix(-1.1584408e-5,-11.259812,6.6302928,-6.8214279e-6,-1999.6485,2722.7187)"
       cx="209.75632"
       cy="333.23007"
       fx="209.75624"
       fy="333.2301"
       r="7.0394197" />
  </defs>
  <sodipodi:namedview
     id="base"
     pagecolor="#ffffff"
     bordercolor="#666666"
     borderopacity="1.0"
     inkscape:pageopacity="0.0"
     inkscape:pageshadow="2"
     inkscape:zoom="1.3627989"
     inkscape:cx="209.34946"
     inkscape:cy="126.61525"
     inkscape:document-units="px"
     inkscape:current-layer="layer1"
     showguides="true"
     inkscape:guide-bbox="true"
     inkscape:window-width="1024"
     inkscape:window-height="693"
     inkscape:window-x="0"
     inkscape:window-y="25"
     showgrid="false"
     fit-margin-top="0"
     fit-margin-left="0"
     fit-margin-right="0"
     fit-margin-bottom="0"
     inkscape:window-maximized="0" />
  <metadata
     id="metadata2626">
    <rdf:RDF>
      <cc:Work
         rdf:about="">
        <dc:format>image/svg+xml</dc:format>
        <dc:type
           rdf:resource="http://purl.org/dc/dcmitype/StillImage" />
      </cc:Work>
    </rdf:RDF>
  </metadata>
  <g
     inkscape:label="Preenchimento"
     inkscape:groupmode="layer"
     id="layer1"
     transform="translate(-159.98826,-279.58935)"
     style="display:inline">
    <path
       style="fill:#2f1a00;fill-opacity:1;fill-rule:evenodd;stroke:none;display:inline"
       d="m 465.53918,443.51422 c 5.15708,0.0481 10.31367,0.12797 15.46875,0.28125 -2.13584,4.27971 -1.89192,8.71761 -2.21875,13.21875 -2.8446,10.98724 -2.80783,22.5621 -2.15625,33.875 -0.78306,10.821 1.85541,21.5272 3.03125,31.90625 0.82532,4.3985 -0.87584,5.56363 -4,2.59375 -9.35314,-8.67176 -17.84508,-14.10964 -26.5,-25.52648 -3.61592,-4.07956 -10.30904,-10.75136 -12.67993,-15.72586 0.75744,-1.22359 3.79221,-8.10819 4.37845,-9.40175 3.85681,-8.51014 4.20402,-18.3884 3.61323,-27.71297 -2.21921,-6.18543 6.78469,-2.56402 10.43825,-3.53919 3.54167,0.002 7.08334,0.0222 10.625,0.0312 z"
       id="path4817"
       sodipodi:nodetypes="ccccccccsccc"
       inkscape:connector-curvature="0" />
    <path
       style="fill:url(#radialGradient4815);fill-opacity:1;fill-rule:evenodd;stroke:none"
       d="m 193.15625,279.6875 c -5.87644,-0.89801 -4.3927,6.49407 -4.375,10.09375 0.53084,12.08534 -0.41291,24.33588 -0.28125,36.3125 -1.44682,3.5513 1.08592,7.7915 0.42041,11.84272 0.86702,9.20076 -1.16599,18.06264 -0.32933,27.31327 0.46518,5.30737 -2.33722,13.7719 5.96404,11.6493 3.76759,-0.13004 11.77981,1.50114 10.17736,-4.4922 -0.84249,-11.97028 0.37465,-24.11286 -0.66998,-36.00059 2.3376,-4.88835 -0.0936,-11.52523 0.85055,-16.96873 0.23558,-5.69987 -0.58727,-11.35948 0.58695,-16.81252 -0.56152,-6.16068 1.71307,-13.02479 -0.71875,-18.8125 2.63527,-3.70915 -3.47797,-4.59793 -6.0625,-4.09375 -1.85366,-0.0617 -3.70834,-0.0951 -5.5625,-0.0312 z"
       id="path2792"
       inkscape:connector-curvature="0" />
    <path
       style="fill:url(#radialGradient4811);fill-opacity:1;fill-rule:evenodd;stroke:none"
       d="m 530.8125,280.47824 c -4.45733,2.19148 -10.19729,1.0622 -15.18741,1.91941 -40.15807,-0.67992 -80.37337,-0.99522 -120.46869,1.69918 -52.78733,0.86049 -105.59803,2.24018 -158.37475,0.60606 -10.47678,-0.26154 -21.07824,-0.91978 -31.34415,0.3066 -2.26153,3.23821 -0.6764,10.3822 -1.4375,15.15625 -1.14548,3.44233 -0.10122,7.53767 4.125,7.25 -5.89847,-0.24877 -3.64623,7.19369 -4.157,10.81224 0.33129,5.87048 -0.91583,12.49393 -0.0617,18.00026 -1.98801,7.27066 -0.44137,15.68536 -0.8643,23.34346 0.47593,2.82064 -0.86736,6.60417 1.45805,8.78154 -2.13034,0.27945 -1.73369,5.59221 0.125,7.3125 10.91196,2.64689 22.55803,0.0507 33.71866,0.51183 26.23855,-0.28 52.49386,0.27827 78.71834,0.31849 18.74063,-0.70167 37.81073,-0.24988 56.3755,-1.39282 24.93189,-0.51824 49.98205,-3.18768 74.96836,-1.80415 20.16613,0.70862 40.34284,0.79058 60.49978,-0.005 7.00667,-0.53122 14.93822,2.06539 21.50061,-0.87869 1.64342,-4.20782 0.44986,-9.17816 1.84375,-13.53125 0.68698,-16.4627 -0.50161,-32.66669 0.375,-49.09375 -0.007,-8.90346 0.25573,-18.57974 1.3125,-27.59375 -0.48874,-1.2587 -1.74871,-2.15566 -3.125,-1.71875 z m -215.375,25.8125 c 5.89973,0.11691 -2.25456,0.002 0,0 z m 43.4375,60 c 1.38782,1.37771 -3.28263,-0.27541 -3.34375,0.6875 -3.91307,-0.23983 -6.24663,0.20462 -11,-0.0625 -43.17715,-0.80487 -86.37915,0.91298 -129.5625,1.28125 -2.40792,-0.42626 -5.09594,-0.0179 -10.46875,0.15625 51.45833,-0.6875 102.91667,-1.375 154.375,-2.0625 z m 0.0312,0 0.0312,0.0312 -0.0312,-0.0312 z"
       id="path2790"
       inkscape:connector-curvature="0" />
    <path
       style="fill:url(#radialGradient4807);fill-opacity:1;fill-rule:evenodd;stroke:none"
       d="m 532.6875,281.65625 c -3.07409,4.29311 -0.81034,10.88135 -1.59375,15.96875 0.27888,24.43332 -0.23033,48.89654 -0.1875,73.3125 -1.24189,6.9603 5.3675,4.4158 9.93065,4.19566 3.81726,0.43759 6.03303,-2.83865 5.3506,-6.41441 0.69004,-28.11189 2.5423,-56.27616 1.59375,-84.375 -1.26193,-3.87612 -5.67717,-2.20684 -8.34375,-1.6875 -2.1796,-0.1679 -4.72445,-1.9573 -6.75,-1 z"
       id="path2788"
       inkscape:connector-curvature="0" />
    <path
       style="fill:url(#linearGradient4803);fill-opacity:1;fill-rule:evenodd;stroke:none"
       d="m 442.8125,371.79074 c -1.90275,-0.0788 -4.65228,0.0623 -5.125,2.0625 -8.00431,-2.62044 -17.08118,-0.34217 -25.43733,-0.98165 -14.8731,0.22258 -29.33031,2.06171 -44.37517,2.3254 -5.26627,1.22847 -10.87117,-0.6158 -16.49994,0.10962 -10.42262,0.0767 -20.57225,0.52876 -30.62506,0.23413 -34.20411,-0.60027 -68.35929,-1.18019 -102.46875,-0.46875 -3.97588,1.50097 -5.43635,6.67751 -8.9372,9.03897 -4.58489,4.92614 -8.0674,10.68308 -13.94904,14.07825 -10.56266,9.99823 -20.1503,21.16718 -30.42626,31.28903 -2.66239,4.51218 4.47396,3.90464 7.1875,3.84375 14.88735,-0.029 29.89563,0.19356 44.71875,-0.6875 2.09357,-0.46283 3.04161,-2.56957 4.34375,-0.0312 7.33032,2.83919 15.82032,0.22596 23.52829,0.75252 8.27553,-0.32525 16.54702,-0.75089 24.81546,-1.22127 1.64002,-0.9616 6.18313,0.48077 8.99911,0.16722 12.20228,0.45709 24.41759,0.3081 36.62589,0.42653 0.98912,-4.00354 1.86449,1.31903 4.84375,0.0625 16.41617,-0.28374 33.05006,1.01351 49.34375,-0.75 0.80237,-0.3299 3.52556,0.88902 4.8125,-0.6875 18.02279,-0.0826 36.80416,1.30109 54.34375,0.21875 14.75245,1.8711 29.6653,-1.3138 44.5,-0.25 2.52203,-0.36067 3.77398,-0.58128 6.21875,0.15625 14.20889,0.0119 28.59527,0.68569 42.71875,-0.34375 1.49525,-2.15713 3.83989,1.45177 6,-0.53125 15.94922,-0.26043 32.1478,0.2278 47.96875,-1.21875 3.74485,-1.63647 -0.30461,-5.8626 -2.9375,-4.78125 -6.54066,-6.94559 -14.71221,-11.94663 -20.78125,-19.4375 -6.7239,-5.52808 -11.826,-13.56931 -19.6875,-17.375 -2.38871,-1.70206 -3.45311,-5.57768 -6.53125,-7.25 -2.58124,-3.63101 -8.07144,-4.0948 -9.53125,-8.34375 -11.99548,-0.0316 -23.6523,-0.17305 -35.625,1 -7.76013,-1.35339 -16.78304,0.16763 -25,-1.25 -4.33957,-0.20459 -8.68796,-0.21875 -13.03125,-0.15625 z"
       id="path2766"
       inkscape:connector-curvature="0" />
    <path
       style="fill:#392400;fill-opacity:1;fill-rule:evenodd;stroke:none"
       d="m 516.125,375.84375 c 4.55618,2.23859 7.82682,7.28638 13.03125,8 2.92883,-1.87681 2.27803,-7.10112 0.8125,-9.90625 -5.26828,-3.61367 -12.73009,-0.77424 -18.71875,-1.75 -1.43303,-0.0447 4.38174,3.06809 4.875,3.65625 z"
       id="path2762"
       inkscape:connector-curvature="0" />
    <path
       style="fill:#453000;fill-opacity:1;fill-rule:evenodd;stroke:none"
       d="m 532.4375,373.40625 c -4.82465,1.51431 -2.43408,8.27057 -2.25,12 1.51019,5.48391 8.65881,2.20645 12.5903,2.60445 3.97916,0.4922 7.84049,-2.06798 7.12845,-6.4482 0.45509,-3.15671 0.0739,-8.3824 -4.3125,-7.9375 -4.40335,0.0961 -8.78729,0.11274 -13.15625,-0.21875 z"
       id="path2758"
       inkscape:connector-curvature="0" />
    <path
       style="fill:#000000;fill-rule:evenodd;stroke:none"
       d="m 186.1875,374.8125 c -3.31604,1.89235 -0.21306,8.01088 2.53125,4.09375 1.64322,-1.87447 0.33693,-5.76241 -2.53125,-4.09375 z"
       id="path2754"
       inkscape:connector-curvature="0" />
    <path
       style="fill:#453000;fill-opacity:1;fill-rule:evenodd;stroke:none"
       d="m 191.28125,374.53125 c -5.80599,0.27237 -3.488,7.91301 -3,11.65625 1.36261,6.02531 9.17326,3.78092 13.59375,3.8125 4.92163,-2.23034 1.89201,-9.36322 3.03029,-13.46829 -0.9572,-2.53212 -6.06946,-0.12049 -8.78029,-1.31296 -1.52697,-0.5887 -3.20887,-0.79634 -4.84375,-0.6875 z"
       id="path2752"
       inkscape:connector-curvature="0" />
    <path
       style="fill:#392400;fill-opacity:1;fill-rule:evenodd;stroke:none"
       d="m 206.3125,375.0625 c -4.69144,0.66395 -2.54697,7.14954 -2.59375,10.53125 0.90325,5.04985 5.85039,0.70004 7.5,-1.53125 1.72074,-2.38654 6.85669,-6.18357 2.46875,-8.59375 -2.40111,-0.48381 -4.92238,-0.45367 -7.375,-0.40625 z"
       id="path2746"
       inkscape:connector-curvature="0" />
    <path
       style="fill:#453000;fill-opacity:1;fill-rule:evenodd;stroke:none"
       d="m 425.59375,429.63449 c -15.18366,0.57507 -30.50734,0.25083 -45.6222,0.60604 -3.40666,-0.11698 -8.17137,0.4493 -10.40905,2.01896 -4.1414,-3.69854 -10.76146,-0.5159 -15.74957,-1.31435 -11.11065,0.0804 -22.78001,0.92366 -33.62543,0.37685 -1.99505,-2.33953 -4.36375,2.77266 -4.53125,-1.40625 -15.14322,2.01245 -31.81416,0.33953 -46.28125,1.4375 -2.54974,-3.47635 -8.34438,-0.3269 -12.21875,-0.28125 -12.10386,1.1581 -26.01236,1.1268 -37.21875,1.875 -2.16274,-4.37033 -8.58585,-0.4655 -12.37395,-1.60823 -14.15265,0.83062 -28.46865,-0.28888 -42.5323,1.23323 -5.06936,2.10283 -6.64091,8.809 -3.21875,13.125 3.31266,4.07886 9.77751,0.96289 14.21724,1.76614 3.76806,-0.01 7.23702,-1.29529 10.47026,0.64011 11.61993,0.12392 23.47626,1.20689 35,-0.125 1.86091,-0.19875 1.09377,-3.67215 3.09375,-1.53125 8.69903,1.89977 18.01799,0.52087 26.84375,0.0937 5.79522,-0.57351 13.41909,0.15504 18.15625,-0.71875 2.11841,2.29078 5.92773,0.49231 8.78125,1.46875 13.07074,-0.45114 26.08242,1.56818 39.15625,0.9375 -0.1173,-1.07076 2.82087,0.51752 4.25,-0.375 11.26338,-0.29765 22.62973,-0.84688 33.78125,-0.375 2.3071,-1.40882 4.34973,-1.62249 6.875,-1.03125 3.08761,0.24735 5.85382,-1.75245 8,-0.6875 18.11332,-0.75964 36.43574,-0.0162 54.4375,-1.65625 2.11393,0.0487 5.1163,0.61469 7.75,0.21875 10.21804,2.06864 21.37746,-0.14156 31.9053,0.25099 3.3034,-0.63467 8.34569,0.91105 10.6572,-1.84474 1.65529,3.46949 8.20353,0.61702 11.96875,1.53125 12.00754,0.44112 24.03183,-0.81754 36.03125,0.28125 0.2075,-0.94259 2.97581,3.06891 4.5625,0.875 8.18051,0.98363 16.63992,0.28031 24.9375,-1.21875 7.58312,-1.19532 16.11852,1.9654 23.125,-1.53125 3.82419,-3.2082 2.88242,-8.91652 3.125,-13.0625 -2.52936,-4.23453 -8.81059,-1.33559 -12.71875,-1.3125 -13.97391,-0.23312 -28.07941,1.59291 -42.09375,0.625 0.37912,2.53138 -3.0825,-0.8919 -4.8125,0.3125 -14.19269,1.44962 -28.70423,-0.41996 -42.78125,1.3125 -1.57205,2.38676 -2.47467,-1.88485 -5,-0.84375 -14.22812,-1.22727 -28.16182,1.73815 -42.375,0.84375 -2.7732,-0.81106 -2.26089,-8.63195 -3.5625,-0.90625 z"
       id="path2740"
       inkscape:connector-curvature="0" />
    <path
       style="fill:url(#linearGradient4787);fill-opacity:1;fill-rule:evenodd;stroke:none"
       d="m 514.9375,441.625 c -13.28149,2.34727 -27.20847,0.36217 -40.65625,1.4375 -2.76604,2.57305 -2.67882,7.2961 -3.75,10.875 -3.53246,15.95859 -4.77356,32.55596 -2.42003,48.87381 0.53524,8.37007 3.44149,16.25776 6.82628,23.87619 18.05643,-1.21215 36.37844,-0.4055 54.28125,-2.5625 3.6961,-2.71534 -2.16279,-4.85046 -3.90625,-6.75 -5.05884,-5.42344 -8.97566,-12.06101 -11.28125,-19.1875 -2.83238,-16.37972 -4.1068,-35.52421 6.71875,-49.375 2.61913,-0.0582 5.44908,-3.0782 3.03125,-5.53125 -2.32703,-1.9306 -5.92891,-1.56747 -8.84375,-1.65625 z"
       id="path2724"
       inkscape:connector-curvature="0" />
    <path
       style="fill:url(#linearGradient4783);fill-opacity:1;fill-rule:evenodd;stroke:none"
       d="m 260.78125,443.96875 c -11.6394,1.71435 -23.77574,0.53331 -35.40625,2.1875 -3.72686,2.08218 2.15033,5.50414 3.71875,7.90625 4.83281,7.48261 4.21022,16.82455 5.46875,25.40625 1.17986,4.91916 -2.47539,10.46504 0.5,14.8125 -0.1652,3.98403 -1.27667,7.7273 -2.40625,11.375 -1.30058,5.35675 -5.21596,9.48429 -7.59375,14.1875 -0.2405,3.02763 -2.92567,8.8042 2.28112,7.20273 16.30836,-0.26998 32.66484,-0.56609 48.90638,1.14102 0.0473,-8.43522 3.76242,-16.2905 3.39219,-24.90317 0.95729,-15.78888 1.44688,-31.67572 -1.78504,-47.24282 -0.53086,-3.76636 -0.70531,-9.53842 -5.3259,-10.04151 -3.42828,-2.11891 -7.67538,-2.06866 -11.75,-2.03125 z"
       id="path2722"
       inkscape:connector-curvature="0" />
    <path
       style="fill:#2f1a00;fill-opacity:1;fill-rule:evenodd;stroke:none"
       d="m 289.46875,445.5625 c -5.15708,0.0481 -10.31367,0.12797 -15.46875,0.28125 2.13584,4.27971 1.89192,8.71761 2.21875,13.21875 2.8446,10.98724 2.80783,22.5621 2.15625,33.875 0.78306,10.821 -1.85541,21.5272 -3.03125,31.90625 -0.82532,4.3985 0.87584,5.56363 4,2.59375 7.28163,-12.22291 17.84508,-22.39566 26.5,-33.8125 3.61592,-4.07956 7.94161,-8.088 10.3125,-13.0625 -5.74061,-9.27342 -6.30484,-20.75014 -5.62425,-31.49206 2.21921,-6.18543 -6.78469,-2.56402 -10.43825,-3.53919 -3.54167,0.002 -7.08334,0.0222 -10.625,0.0312 z"
       id="path2203"
       inkscape:connector-curvature="0" />
  </g>
  <g
     inkscape:groupmode="layer"
     id="layer2"
     inkscape:label="Contorno"
     style="display:inline"
     transform="translate(-19.988258,-15.798608)">
    <path
       id="path2711"
       d="m 59.759593,14.824251 c -2.91444,0.06807 -4.35334,0.29865 -4.46875,0.6875 -0.09759,0.31358 -1.00029,0.60496 -2,0.625 -2.339939,0.0469 -3.27497,1.41868 -3.9375,5.96875 -0.19916,1.393069 -0.41073,1.79467 -1,1.5625 -0.676832,-0.261851 -0.7351,0.17754 -0.3125,3.90625 0.653621,5.73396 0.60377,3.62337 0.40625,46.5625 -0.03712,8.513863 -0.04522,27.459199 -0.03125,32.374999 0.01258,2.43481 -0.19159,4.47576 -0.4375,4.5 -0.253011,0.0316 -0.59134,0.11659 -0.875,0.1875 -0.252389,0.063 -0.9118,0.17197 -1.4375,0.21875 -1.283119,0.10304 -1.251,1.05696 0.03125,1.03125 0.567481,-0.0114 0.92882,0.21955 0.8125,0.5625 -0.10686,0.33309 0.08736,1.55943 0.46875,2.75 0.98707,3.08444 0.90301,3.81644 -0.75,5.59375 -1.137678,1.21135 -1.3105,1.6375 -0.6875,1.625 0.424991,-0.009 0.81952,-0.36862 0.8125,-0.71875 -0.0072,-0.35739 0.32819,-0.7696 0.75,-0.9375 0.683289,-0.26008 0.7606,0.0466 0.53125,2.34375 l -0.28125,2.625 1.3125,-0.0937 c 0.733331,-0.0533 1.92784,0.0786 2.6875,0.375 0.85683,0.32344 2.74287,0.42647 5.03125,0.21875 1.996641,-0.18012 3.93621,-0.15766 4.28125,0.0625 0.448158,0.30266 -3.24859,4.38586 -13.28125,14.75 -7.635281,7.88104 -14.24243,14.73407 -14.6875,15.1875 -0.333231,0.34117 -0.82731,0.61292 -1.46875,0.84375 l -4.28125,4.46875 c -0.04174,0.12527 -0.14131,0.26197 -0.34375,0.4375 -0.05008,0.0434 -0.0961,0.0601 -0.15625,0.0937 l -3.875,4.0625 c 0.02198,0.16466 0.09489,0.32446 0.25,0.5625 0.61555,0.95534 -0.36878,2.66957 -1.875,4.0625 l -1.59375,3.8125 c 0.22174,0.14457 0.28043,0.63492 0.375,1.625 0.05166,0.56404 0.07404,1.07575 0.0625,1.46875 l 0.375,1.28125 c 0.5077,0.1035 0.9282,0.4548 1.1875,1 0.2753,0.5984 0.92365,1.69923 1.46875,2.5 0.282421,0.42248 0.55926,1.03419 0.75,1.6875 l 5.53125,-0.0312 c 2.075241,-0.22235 5.93188,-0.4388 8.75,-0.5 1.197721,-0.026 2.15684,-0.0119 2.71875,0.0312 0.907232,0.0664 2.20881,0.10584 2.8125,0.0937 0.378521,-0.008 0.68493,0.0937 0.9375,0.28125 l 10.84375,-0.0625 0.0625,0 c 0.85449,-0.14609 2.369,-0.30314 3.875,-0.375 0.836282,-0.0379 1.48045,-0.066 2,-0.0625 1.558579,0.0104 1.93232,0.28439 2.75,1.125 l 0.03125,-0.0312 c 0.101102,0.10426 0.18678,0.24923 0.28125,0.375 l 3.25,0.625 c 0.568507,-0.12579 1.68747,-0.22985 3.03125,-0.25 1.915103,-0.0287 4.11557,-0.20198 4.90625,-0.40625 0.402607,-0.10229 0.82584,-0.16722 1.25,-0.1875 0.42414,-0.0203 0.8278,-0.008 1.09375,0.0625 0.06024,0.0153 0.22924,0.0166 0.3125,0.0312 0.0091,0.002 0.0219,-0.002 0.03125,0 -1.1e-5,1e-5 1.88921,-0.4863 3.625,0.25 0.98563,0.0461 1.27325,0.27167 1.40625,0.96875 0.01085,0.0116 0.02048,0.0194 0.03125,0.0312 0.612474,0.6723 1.4532,1.51771 2.34375,2.375 0.03349,-0.0413 0.1317,-0.12074 0.15625,-0.15625 l 0.75,-1.09375 1.1875,1.25 c 0.62732,0.68559 1.70841,2.44436 2.40625,3.875 0.752747,1.55052 1.30434,3.49849 1.375,4.875 5.43e-4,0.0104 -4.9e-4,0.0209 0,0.0312 0.501807,1.66364 1.05458,3.77663 1.53125,6.375 l 0.03125,-0.0625 c 0.130777,0.32857 0.22797,1.11342 0.28125,1.90625 0.174102,1.09875 0.32081,2.30767 0.46875,3.5625 0.026,0.0889 0.06658,0.17228 0.09375,0.25 0.510236,1.47305 1.1676,9.27349 0.78125,9.28125 -0.02429,4.9e-4 -0.1008,-0.0691 -0.15625,-0.0937 0.09184,2.35578 0.13371,4.45456 0.125,6.3125 0.324171,0.58283 0.54407,1.18593 0.5625,1.78125 0.02689,0.8595 -0.11942,1.64389 -0.34375,1.78125 -0.126581,0.0751 -0.2575,0.37625 -0.34375,0.75 -0.271709,5.44222 -0.93846,7.99431 -1.28125,8.9375 0.0075,0.48687 -0.17027,1.24074 -0.5625,2.21875 -0.0108,0.0445 -0.01991,0.0166 -0.03125,0.0625 -0.01107,0.0272 -0.01988,0.0349 -0.03125,0.0625 -0.351993,1.41601 -0.96259,3.50836 -1.875,5.65625 l -0.1875,0.625 -0.0625,0 c -0.733579,1.62545 -1.65761,3.23543 -2.78125,4.625 -0.226658,0.43018 -0.55275,0.94134 -0.96875,1.40625 -0.857309,0.97867 -1.50186,2.44794 -1.84375,4.3125 -0.300733,1.63504 -0.66122,2.67482 -1.25,3.34375 l 2.84375,2.25 c 0.755503,-0.10869 2.19795,-0.20126 4,-0.25 4.366579,-0.11809 10.547417,-0.0615 12.406247,0.25 l 0,0.0625 c 0.78543,0.13647 3.58437,0.31425 6.21875,0.375 1.71533,0.038 2.39568,0.0655 3.34375,0.0937 l 0.9375,-0.0937 5.96875,0.46875 4.75,0.125 c 3.3523,0.0826 6.86356,0.34477 7.8125,0.5625 0.4168,0.0935 0.77234,0.18762 1.09375,0.28125 l 0.0312,0 0.46875,0.0312 4.59375,1.90625 c 0.277,-0.43501 0.65418,-0.9449 1.125,-1.5 l 4,-6.71875 c -0.12134,5.6e-4 -0.22459,-0.005 -0.25,-0.0312 -0.1061,-0.1114 1.08647,-1.63335 2.65625,-3.34375 1.56026,-1.70298 3.60711,-4.02468 4.5,-5.15625 0.47963,-0.60831 0.81001,-1.04289 1.15625,-1.34375 0.97816,-1.16394 1.30045,-1.52459 2.4375,-2.875 0.17239,-0.40311 0.56293,-0.91851 1.1875,-1.625 0.95202,-1.07475 2.45525,-3.00397 3.28125,-4.21875 0.82373,-1.20748 1.68892,-2.24563 1.90625,-2.25 0.20768,-0.004 1.04823,-0.988 1.84375,-2.15625 0.8601,-1.24738 1.63394,-2.02919 2.6875,-2.59375 1.10527,-1.29342 2.22238,-2.60622 3.15625,-3.6875 -0.0796,-0.0977 -0.0448,-0.27339 0.0312,-0.5 0.14118,-0.42799 0.40298,-0.77743 0.59375,-0.78125 0.17867,-0.004 1.6713,-1.65997 3.28125,-3.65625 l 2.9375,-3.65625 0.4375,0 c 0.0936,-0.20291 0.1875,-0.3125 0.1875,-0.3125 l 3.125,-3.3125 c -0.11126,-0.12987 -0.19445,-0.26391 -0.21875,-0.40625 -0.0852,-0.51526 -0.56852,-1.1773 -1.09375,-1.46875 -1.3358,-0.71727 -2.00263,-1.65945 -2.65625,-3.65625 -0.0387,-0.12131 -0.0311,-0.20355 -0.0625,-0.3125 l -0.375,-0.375 -0.40625,-3.09375 c -0.0305,0.0198 -0.0511,0.0304 -0.0937,0.0312 -0.24631,0.005 -0.58233,-0.7442 -0.78125,-1.75 -0.18906,-0.99631 -0.46704,-2.34304 -0.59375,-3 -0.12656,-0.64976 -0.40263,-3.16188 -0.5625,-5.59375 l -0.28125,-4.40625 0.3125,0.1875 0.0625,-1.46875 c -0.52057,-0.46162 -0.51994,-0.98992 -0.3125,-2.53125 0.15489,-1.19164 0.65278,-2.74758 1.09375,-3.40625 0.44795,-0.67093 0.73526,-1.46215 0.625,-1.78125 -0.14873,-0.42945 1.67748,-0.64593 7.5625,-0.875 6.33633,-0.25019 9.76704,-0.35814 11.625,-0.40625 1.85794,-0.0481 2.15446,-0.0581 2.15625,0.0312 3.6e-4,0.0176 -0.025,0.0713 -0.0312,0.0937 17.38502,-0.39399 61.84607,-1.37667 78.5,-1.75 2.43038,-0.0545 11.17574,-0.27537 11.46875,-0.28125 2.6367,-0.0528 21.49243,0.6203 21.625,0.625 l -0.0312,-0.125 5.84375,-0.21875 c 3.21535,-0.12002 8.51545,-0.45457 11.8125,-0.71875 1.3494,-0.10978 2.61368,-0.19684 3.71875,-0.25 3.31525,-0.15953 5.39203,-0.033 5.78125,0.3125 0.0804,0.16587 -0.24889,1.77779 -0.78125,3.65625 -0.54603,1.92665 -1.21422,4.26681 -1.46875,5.1875 -0.24744,0.91084 -0.76007,2.35947 -1.09375,3.1875 -0.34057,0.84508 -0.61495,2.37983 -0.59375,3.4375 0.021,1.04799 -0.13452,2.50338 -0.375,3.28125 -0.45156,1.45368 -0.85378,5.26759 -1.78125,16.96875 -0.50959,6.51346 -0.27959,12.13679 0.78125,17.9375 0.1388,0.77995 0.37653,2.70927 0.53125,4.28125 0.56023,5.77451 2.3924,13.84436 3.9375,17.53125 0.53519,1.27202 0.52258,1.30734 -0.46875,0.78125 -0.56405,-0.30033 -1.63668,-1.22407 -2.34375,-2.03125 -2.01736,-2.30042 -6.03147,-6.51532 -7.65625,-8.03125 -11.89619,-11.1422 -12.22027,-11.49807 -12.84375,-13.4375 -0.4826,-1.53883 -1.90263,-3.16121 -6,-7.03125 -5.11679,-4.83286 -5.9453,-6.07168 -4.78125,-6.8125 0.28157,-0.17477 1.42191,-2.36938 2.53125,-4.875 2.27709,-5.11148 4.22617,-12.69812 4.15625,-16.1875 -0.0248,-1.23637 0.16518,-2.73481 0.4375,-3.25 0.45314,-0.89564 0.81366,-6.7646 0.71875,-11.5 l -0.0312,-2.0625 -2.09375,0.875 c -0.0178,0.008 -0.0149,0.0238 -0.0312,0.0312 -0.37001,0.16872 -0.38725,0.31925 0,0.59375 0.41172,0.29373 0.42742,1.58617 0.0937,5.1875 -0.0251,0.26444 -0.008,0.38898 -0.0312,0.625 l 0.15625,0.625 c 2e-5,2e-5 0.14301,6.37261 -0.34375,8.5 -0.053,0.2314 -0.21603,0.84295 -0.3125,1.25 -0.20273,0.85526 -0.48551,1.85465 -0.84375,3.21875 -0.0244,0.10127 -0.0383,0.17999 -0.0625,0.28125 -0.2622,1.09896 -0.49553,2.22065 -0.65625,3.03125 -0.20223,1.01172 -0.38602,1.61248 -0.71875,1.90625 -0.81567,2.5505 -1.7252,4.92423 -2.625,6.28125 -0.079,0.11916 -0.17348,0.25543 -0.25,0.375 -0.006,0.0138 -0.025,0.0174 -0.0312,0.0312 -0.71608,1.60246 -1.57742,3.28272 -2.21875,4.1875 -0.69203,1.53723 -1.09375,2.625 -1.09375,2.625 -1e-5,-1e-5 5.03866,4.75582 8.9375,9.09375 0.0716,0.0397 0.20567,0.11158 0.25,0.125 0.47616,0.13298 0.83771,0.4794 0.84375,0.78125 0.002,0.11295 0.0478,0.26931 0.125,0.4375 1.26632,1.48227 2.31029,2.85945 2.84375,3.875 0.2752,0.52389 0.92693,1.36521 1.84375,2.4375 0.0471,0.0382 0.0703,0.10934 0.125,0.15625 0.49456,0.42421 1.27385,1.14237 2.125,2.03125 l 0.0312,0 c 1.08548,1.134 1.8109,1.98638 2.3125,2.78125 1.33131,1.39055 2.73569,2.81609 4.25,4.34375 0.0713,-0.0687 0.1498,-0.12564 0.21875,-0.125 0.32859,0.003 1.42266,0.97097 2.4375,2.1875 1.01478,1.21414 2.50249,2.9325 3.3125,3.8125 0.11384,0.12432 0.18266,0.22733 0.28125,0.34375 3.2275,3.1688 5.84449,5.73723 7.875,7.6875 0.0118,-8e-5 0.0194,2.3e-4 0.0312,0 0.76304,-0.0153 1.26623,0.31541 1.4375,0.90625 0.40546,1.42685 1.68822,1.59074 2.5625,0.375 0.69417,-0.97308 1.65408,-0.92214 1.625,-0.125 l 3.15625,-0.0625 c 0.004,-0.18381 0.0985,-0.25375 0.25,-0.25 0.10099,0.003 0.22805,0.0309 0.40625,0.0937 0.15158,0.053 0.64354,0.0913 1.25,0.125 l 15.5,-0.3125 c 0.96849,-0.15813 2.66915,-0.1843 5.5625,-0.125 l 15.65625,-0.3125 c 0.53398,-0.0434 1.00609,-0.0786 1.34375,-0.125 0.66738,-0.0895 1.37227,-0.1768 1.90625,-0.1875 0.53396,-0.0107 0.90296,0.0515 1.03125,0.125 0.0348,0.0192 0.0412,0.0505 0.0625,0.0937 l 2.15625,-0.0312 0.0312,-0.0625 2.40625,-0.125 c 1.33946,-0.0655 2.86541,-0.33867 3.53125,-0.625 0.2102,-0.0894 0.44205,-0.15036 0.65625,-0.1875 0.16068,-0.0279 0.3328,-0.0328 0.5,-0.0312 0.36225,0.003 0.77449,0.10785 1.21875,0.25 l 1.09375,-0.5625 c -0.0301,-0.0127 -0.096,-0.0183 -0.125,-0.0312 -2.09105,-0.93193 -2.8061,-1.47684 -3.28125,-2.6875 l -3.03125,-2.34375 -0.0625,-0.0937 -0.0312,0 c -1.59772,-0.12119 -6.11421,-4.20504 -7.9375,-7.625 -0.6777,-1.27164 -1.48549,-2.45215 -1.78125,-2.625 -0.76845,-0.45052 -2.93273,-5.41068 -3.53125,-7.59375 l -0.125,-0.15625 -0.3125,-1.625 c -0.0678,0.0946 -0.25417,0.0673 -0.46875,-0.0625 -0.24937,-0.14721 -0.4913,-0.62784 -0.5,-1.0625 -0.007,-0.35738 0.0294,-0.54822 0.0937,-0.5625 0.0643,-0.0143 0.18742,0.15788 0.40625,0.46875 0.12502,0.17909 0.25198,0.3685 0.34375,0.5625 l -0.65625,-3.21875 c -0.0794,0.13834 -0.14429,0.24851 -0.21875,0.25 -0.56748,0.0114 -1.49304,-5.10588 -1.90625,-10.65625 l -0.375,-5.09375 0.34375,0 0.15625,-2 c -0.0281,-0.47911 -0.0207,-1.20007 0,-2.3125 0.0721,-4.58465 0.51525,-8.05586 1.1875,-9.6875 l 0,-0.0312 0.40625,-2.75 0.0937,-0.25 c -0.15773,-1.47579 0.55727,-4.96778 1.40625,-5.84375 0.16539,-0.1845 0.29562,-0.97031 0.28125,-1.6875 -0.0144,-0.71723 0.21584,-1.46773 0.46875,-1.625 0.26005,-0.16466 0.41476,-0.60624 0.40625,-1.03125 -0.0154,-0.7655 3.54975,-5.4838 4.125,-5.46875 0.13404,0.004 0.49764,0.35699 0.875,0.78125 l 2.6875,-0.75 c 0.33674,-0.33063 0.94456,-0.63489 1.4375,-0.71875 0.56949,-0.0911 6.28179,-0.25415 11.84375,-0.375 0.96128,-0.0209 1.70279,-0.0453 2.625,-0.0625 3.21952,-0.22949 6.59821,-0.50851 9.71875,-0.90625 2.08439,-0.26568 4.28125,-0.41475 6.5,-0.53125 7.91464,-0.41562 15.30258,-0.0903 16.96875,0 0.009,4.9e-4 0.0229,-4.6e-4 0.0312,0 0.27441,-0.11767 0.6956,-0.20289 1.09375,-0.21875 l 1.65625,-1.34375 c 0.2121,-0.40092 0.4584,-0.60635 0.78125,-0.625 l 0.59375,-0.46875 0.0625,-0.5 c -0.2064,-0.36893 -0.33989,-0.58437 -0.0625,-0.59375 0.0154,-5e-4 0.0762,-5.9e-4 0.0937,0 l 0.0937,-1.0625 c -0.0677,-0.37094 -0.0596,-0.95605 0.0625,-1.84375 0.13352,-1.00435 0.29776,-2.70277 0.4375,-4.15625 l 0.21875,-2.0625 0.3125,-3.65625 c 0,-1e-5 9.7e-4,-1.12989 -5.625,-5.09375 -0.008,-0.006 -0.0541,0.006 -0.0625,0 -0.84675,0.20791 -1.48938,0.12326 -1.5,-0.40625 -0.005,-0.22656 -0.70809,-1.0864 -1.65625,-2.09375 -3.18038,-2.7102 -6.49325,-5.99783 -8.9375,-8.5 l -1.71875,-0.0937 -2.96875,-3.03125 c -6.95625,-7.17549 -8.39466,-8.62197 -9.71875,-9.71875 -1.60165,-1.32557 -10.58436,-10.44829 -10.4375,-10.59375 0.26037,-0.26856 5.71204,-0.3912 8.6875,-0.1875 3.01416,0.20531 3.32698,0.16793 4.25,-0.90625 0.90423,-1.04725 1.01621,-1.8025 1,-7.3125 -0.0159,-6.45457 -0.30157,-7.31905 -2.1875,-7.28125 -0.82101,0.0165 -1.14255,-0.33737 -1.3125,-1.34375 -0.45161,-2.76666 -0.072,-17.750619 0.78125,-29.781249 0.0565,-0.916698 0.23239,-7.35697 0.375,-14.34375 0.13536,-6.986658 0.35735,-14.95227 0.5,-17.71875 0.30513,-5.989938 -0.21809,-25.53699 -0.71875,-27.375 -0.71087,-2.563371 -2.15206,-2.96699 -10.09375,-2.78125 -5.92324,0.12837 -7.15848,0.28076 -7.15625,0.875 0.0104,0.9999 -0.69106,1.95793 -1.1875,1.65625 -0.23967,-0.144971 -7.50171,-0.19582 -16.21875,-0.125 -8.70978,0.07067 -15.97718,0.0037 -16.1875,-0.125 -0.21032,-0.12863 -5.4518,-0.2647 -11.625,-0.3125 -6.17311,-0.04537 -11.33821,-0.14033 -11.53125,-0.25 -0.18078,-0.10026 -3.51271,-0.13376 -7.4375,-0.09375 -3.92478,0.03999 -7.45018,-0.12823 -7.90625,-0.34375 -0.47562,-0.2272 -0.93927,-0.21584 -1.09375,0.03125 -0.13772,0.239509 -9.37717,0.65022 -21.1875,0.90625 -11.52557,0.24064 -22.29745,0.66905 -24,0.9375 -5.49275,0.87588 -102.64275,2.23494 -108.875,1.53125 -1.79652,-0.200761 -15.62735,-0.51232 -19.84375,-0.4375 -1.85697,0.03722 -3.11189,0.29191 -3.21875,0.625 -0.11358,0.3598 -0.42237,0.32055 -0.84375,-0.09375 -0.44378,-0.44527 -1.27801,-0.52163 -2.90625,-0.28125 -2.69028,0.404221 -18.68393,0.58961 -24.625,0.3125 -2.23915,-0.107311 -9.64906,-0.19434 -16.499997,-0.1875 -6.841333,0.0042 -12.92281,-0.07586 -13.5,-0.1875 -1.428728,-0.259866 -8.727898,-0.192918 -12.25,0.03125 -0.165336,-0.06093 -0.34425,-0.09375 -0.53125,-0.09375 l -2.625,0 c 0.09213,-2.197603 0.156401,-2.90071 0.25,-3.25 0.350992,-1.289789 -2.42579,-2.05288 -7.21875,-1.9375 z m -3.375,2.90625 c 3.279345,0.02845 6.964462,0.193932 7.21875,0.40625 0.135069,0.110851 -0.07173,0.48503 -0.5,0.8125 -0.751699,0.582761 -0.9964,2.82978 -0.25,2.34375 0.91352,-0.58359 1.2696,1.21485 1.125,5.8125 -0.08025,2.625111 -0.18816,6.27634 -0.21875,8.125 -0.08989,5.881751 -0.07286,6.0133 -0.96875,6.03125 -0.623002,0.0125 -0.70017,0.09171 -0.25,0.375 0.611438,0.374262 0.69802,3.62621 0.5,20.625 -0.0081,1.046158 0.05531,6.8278 0.09375,7.78125 0.03992,1.028307 -0.73552,1.30794 -2.9375,1.125 -0.95573,-0.07505 -1.85537,0.05593 -2,0.3125 -0.14718,0.249356 0.55311,0.42647 1.5625,0.40625 2.904991,-0.05822 3.1568,0.75303 2.875,8.75 -0.123868,3.7034 -0.09385,11.98862 0.0625,18.343753 l 0.28125,11.562496 -1.4375,0.34375 c -0.78138,0.18718 -3.49229,0.24563 -6.03125,0.125 l -4.625,-0.28125 -0.09375,-9.125 c -0.04264,-5.019091 -0.06215,-10.485649 -0.09375,-12.062499 -0.03629,-1.81109 0.0936,-2.60703 0.375,-2.1875 0.729851,1.099018 -0.01749,-21.1119 -0.75,-22.34375 -0.5074,-0.847412 -0.52541,-0.96944 -0.03125,-0.78125 0.464818,0.169482 0.57895,-1.34529 0.46875,-6.84375 -0.0775,-3.868459 0.02155,-9.73221 0.21875,-13.03125 0.190179,-3.286819 0.22829,-10.53151 0.0625,-16.03125 -0.215229,-7.363759 -0.16973,-10.10326 0.25,-10.375 0.139509,-0.09036 0.94982,-0.15759 2.09375,-0.1875 0.857953,-0.02243 1.906885,-0.04073 3,-0.03125 z m 335.343747,0.71875 c 0.41227,0.04175 0.70081,0.650139 0.34375,1.34375 -0.49966,0.983579 -1.26389,13.35972 -1.125,18 0.0412,1.57426 0.0225,3.44612 -0.0937,4.15625 l -0.21875,1.28125 -4.1875,-0.09375 c -2.29389,-0.06758 -4.79942,-0.24614 -5.59375,-0.34375 -0.78466,-0.09781 -4.54234,-0.21795 -8.375,-0.28125 -5.98576,-0.09744 -12.87987,-0.51467 -17.96875,-1.0625 -0.78425,-0.07848 -5.31426,-0.21698 -10.0625,-0.28125 -9.52308,-0.13045 -17.63447,-0.30241 -24.90625,-0.5625 -2.62529,-0.08752 -15.00924,-0.05045 -27.5,0.125 -12.48113,0.175251 -23.3084,0.18649 -24,0.03125 -0.74976,-0.166132 -1.90042,0.02279 -2.9375,0.46875 -0.9461,0.40548 -1.74642,0.61619 -1.75,0.4375 -0.004,-0.178681 -7.37699,-0.21627 -16.375,-0.0625 -8.99061,0.160862 -18.12194,0.21116 -20.21875,0.09375 -2.1256,-0.10959 -5.75537,-0.33583 -8.15625,-0.4375 -2.38885,-0.104301 -5.55971,-0.26689 -7.15625,-0.375 -6.41722,-0.410081 -19.56477,-0.55094 -23.25,-0.25 -1.18676,0.08899 -4.4774,0.07463 -7.40625,-0.09375 -6.67979,-0.37344 -13.34235,-0.25264 -25.09375,0.53125 -10.33994,0.697629 -34.28357,1.19441 -44.96875,0.9375 -14.936636,-0.362568 -23.479157,-0.23793 -23.468747,0.28125 0.01132,0.565071 -2.28671,0.47117 -3.15625,-0.125 -0.335518,-0.227619 -0.70202,-0.16353 -0.875,0.125 -0.156531,0.266458 -0.61363,0.49225 -1,0.5 -0.424997,0.0085 -0.59762,-0.19646 -0.40625,-0.53125 0.200657,-0.3543 0.06119,-0.46213 -0.40625,-0.28125 -0.421986,0.158259 -0.96351,0.05527 -1.28125,-0.25 -0.413822,-0.397559 -0.4785,-0.33471 -0.25,0.21875 0.256922,0.644689 -0.23063,0.78952 -3.53125,0.875 -4.300329,0.10553 -5.31286,-0.58559 -1.375,-0.9375 1.480608,-0.133552 0.63843,-0.22822 -2.125,-0.21875 -4.493188,0.0055 -7.35517,-0.51449 -6.9375,-1.25 0.119027,-0.207739 0.27498,-3.14687 0.375,-6.59375 0.164935,-5.671144 0.256043,-8.256384 0.34375,-10.75 l 2.71875,0 c 0.349926,0 0.68041,-0.116132 0.9375,-0.3125 0.59635,-0.04814 1.207076,-0.09741 1.875,-0.1875 1.920018,-0.26555 5.58352,-0.39904 8.03125,-0.25 2.454756,0.139241 11.80214,0.38461 20.749997,0.5 8.94758,0.10333 17.04436,0.2344 17.96875,0.3125 4.52096,0.41669 13.34702,0.55908 30.375,0.40625 10.28441,-0.09257 20.06264,-0.14387 21.78125,-0.09375 2.76758,0.0774 31.92424,-0.37232 71.0625,-1.0625 7.6502,-0.143681 14.52026,-0.24379 15.3125,-0.25 1.33801,-0.01716 10.22689,-0.5093 23.65625,-1.34375 3.29112,-0.19882 8.55017,-0.39332 11.71875,-0.4375 32.05557,-0.434691 48.67783,-0.50739 58.375,-0.25 16.85383,0.437691 27.22652,0.50335 28.03125,0.15625 0.38336,-0.157449 3.12212,-0.39212 6.09375,-0.5 3.86478,-0.142679 5.48622,-0.3843 5.75,-0.84375 0.14834,-0.253005 0.30292,-0.389725 0.46875,-0.4375 0.0622,-0.01792 0.1286,-0.03721 0.1875,-0.03125 z m 2.28125,0.96875 c 0.14267,-0.05004 0.32252,0.02307 0.5625,0.09375 0.54893,0.148431 2.16645,0.55738 3.5625,0.90625 l -0.0312,0.03125 c 2.25803,0.568361 2.7138,0.53245 3.9375,-0.125 1.60587,-0.87286 3.66334,-0.57403 3.96875,0.5625 0.40086,1.557371 0.43369,22.93686 0.0312,30.21875 -0.21973,4.101531 -0.4367,11.53226 -0.46875,16.5625 -0.0322,5.02057 -0.13139,10.02539 -0.25,11.21875 -0.20549,2.040592 -0.6157,13.18736 -0.875,23.874999 -0.0588,2.72857 -0.26863,5.2129 -0.46875,5.59375 -0.26339,0.47876 -1.80018,0.78185 -5.4375,1.0625 l -5.0625,0.40625 -0.375,-3.0625 c -0.19521,-1.66535 -0.27696,-4.44184 -0.1875,-6.125 0.29365,-5.600779 0.46336,-21.113839 0.375,-32.031249 -0.0511,-5.924817 -0.0164,-13.32653 0.0625,-16.5 0.0768,-3.161339 0.0883,-9.73728 0,-14.625 -0.0881,-4.87563 -0.0784,-10.95612 0.0312,-13.5625 0.13717,-3.370929 0.19702,-4.34988 0.625,-4.5 z m -247.09375,1.03125 c 0.48243,-0.03029 0.96513,0.05749 1.15625,0.3125 0.13718,0.214691 -0.3771,0.43543 -1.1875,0.5 -0.85855,0.07274 -1.29803,-0.05764 -1.125,-0.34375 0.16941,-0.28604 0.66163,-0.4377 1.15625,-0.46875 z m -3.84375,0.0625 c 0.5192,-0.01041 0.99526,0.16959 1,0.40625 0.005,0.234241 -0.4373,0.33854 -0.96875,0.21875 -0.5192,-0.112801 -0.93541,-0.33365 -0.9375,-0.4375 -0.002,-0.10384 0.37983,-0.17696 0.90625,-0.1875 z m -76.374997,21.15625 c 0.376684,-0.0076 0.7144,0.15766 0.71875,0.375 0.0042,0.207662 -0.33239,0.42976 -0.71875,0.4375 -0.379138,0.0076 -0.7144,-0.18893 -0.71875,-0.40625 -0.0044,-0.217341 0.33239,-0.39851 0.71875,-0.40625 z m 4.34375,0.375 c 0.422562,-0.0085 0.62503,0.22147 0.46875,0.5 -0.163378,0.285909 -0.47471,0.43198 -0.75,0.4375 -0.263212,0.0053 -0.46309,-0.15497 -0.46875,-0.4375 -0.0055,-0.275292 0.32498,-0.4915 0.75,-0.5 z m 121.781247,0.5625 c 0.51996,0.02822 0.85687,0.21732 0.71875,0.4375 -0.3483,0.53345 -1.6138,0.4956 -1.625,-0.0625 -0.004,-0.177499 0.19886,-0.30051 0.53125,-0.34375 0.11079,-0.01442 0.24499,-0.04012 0.375,-0.03125 z m -15.09375,0.1875 c 0.12075,-0.0024 0.32289,0.18967 0.5,0.46875 0.16464,0.260031 0.0854,0.43203 -0.1875,0.4375 -0.28252,0.0057 -0.49455,-0.16463 -0.5,-0.4375 -0.006,-0.282511 0.0643,-0.46628 0.1875,-0.46875 z m -1.84375,0.03125 c 0.12313,-0.0025 0.21309,0.18623 0.21875,0.46875 0.005,0.263231 -0.17656,0.4629 -0.46875,0.46875 -0.28251,0.0057 -0.38233,-0.16123 -0.21875,-0.4375 0.16337,-0.285899 0.33834,-0.49738 0.46875,-0.5 z m 133.4375,0.21875 c 9.69135,0.01351 16.73338,0.11798 17.0625,0.3125 0.18096,0.109909 5.88375,0.13363 12.6875,0.0625 6.79155,-0.07812 13.16473,-0.0016 14.09375,0.1875 3.49544,0.715079 21.95319,1.54238 32,1.40625 4.92431,-0.0697 5.83231,0.03911 5.65625,0.65625 -0.10573,0.388629 -0.28495,4.79139 -0.34375,9.8125 -0.0515,5.023382 -0.12801,9.87433 -0.15625,10.875 -0.0258,1.000642 0.0914,1.83516 0.28125,1.90625 0.17982,0.05436 0.23623,3.5605 0.0937,7.78125 -0.15235,4.21131 -0.23465,10.69675 -0.1875,14.375 0.0553,3.726403 -0.094,6.25308 -0.3125,5.71875 -0.24854,-0.5893 -0.48635,1.0836 -0.625,4.531249 -0.11842,3.01239 -0.26112,5.77205 -0.28125,6.09375 -0.0827,1.05736 -4.00898,1.24073 -16.65625,0.71875 -3.29529,-0.13205 -6.37795,-0.22464 -6.90625,-0.1875 -6.25733,0.45638 -29.83479,0.95468 -33.5,0.6875 -2.65614,-0.18108 -7.5545,-0.37383 -11,-0.40625 -11.00596,-0.11036 -20.51797,-0.35547 -22.25,-0.59375 -3.47118,-0.46916 -48.03214,1.19151 -61.65625,2.3125 -1.76071,0.13917 -3.3553,0.0447 -3.71875,-0.25 -0.33649,-0.27589 -0.81213,-0.3832 -1.0625,-0.21875 -0.82007,0.54549 -8.71511,1.03086 -18,1.09375 -13.78473,0.0975 -18.41314,0.1712 -33.71875,0.5625 -7.74323,0.20349 -14.76803,0.29236 -15.5625,0.1875 -2.67627,-0.34252 -9.97148,-0.43838 -27.71875,-0.375 -9.75635,0.0433 -20.42401,-0.0219 -23.71875,-0.125 -3.29479,-0.10549 -7.05465,-0.11553 -8.375,-0.0625 -1.33015,0.046 -3.84933,0.10687 -5.71875,0.125 -4.198208,0.0189 -8.702597,0.13864 -17.218747,0.46875 -7.164208,0.28612 -14.17566,0.10619 -15.96875,-0.40625 -0.845411,-0.23671 -1.03375,-0.65937 -1.0625,-2.09375 l -0.03125,-1.78125 43.124997,-0.6875 c 56.50766,-0.92476 85.80823,-1.26402 90.84375,-0.96875 5.10051,0.28431 7.95196,0.34904 17,0.28125 9.33057,-0.0759 8.85738,-0.0631 9.125,-0.8125 0.16899,-0.48652 0.84282,-0.62686 2.46875,-0.5 1.21931,0.0891 8.18567,0.19211 15.40625,0.1875 7.21824,-0.002 15.9586,0.006 19.375,0.0312 3.41615,0.0161 14.29572,0.0285 24.15625,0 9.85092,-0.0259 20.02928,0.011 22.53125,0.0937 2.50193,0.0827 7.63682,0.16042 11.46875,0.1875 3.82231,0.0273 7.30433,0.17212 7.78125,0.34375 0.47449,0.16924 2.32547,0.14945 4.09375,-0.0937 1.76105,-0.24305 3.5948,-0.43202 4.125,-0.375 0.5203,0.0451 8.81682,-0.0356 18.4375,-0.21875 17.16686,-0.33437 32.34079,-1.05015 33.1875,-1.59375 1.89122,-1.21921 -10.54308,-1.42853 -40.40625,-0.6875 -8.12985,0.19917 -28.70744,0.0842 -37.09375,-0.21875 -4.75034,-0.16811 -12.59031,-0.25628 -17.46875,-0.1875 -22.44317,0.31934 -56.27428,0.3659 -64.875,0.0937 -5.11739,-0.16074 -9.7949,0.28779 -9.78125,0.96875 0.005,0.2246 0.33237,0.41401 0.71875,0.40625 0.37666,-0.008 0.74563,0.18891 0.75,0.40625 0.005,0.22698 -0.61401,0.29419 -1.4375,0.1875 -0.81361,-0.0948 -1.3577,-0.26625 -1.25,-0.4375 0.10044,-0.17352 -2.94212,-0.35836 -6.8125,-0.375 -3.86773,-0.007 -9.57785,-0.11549 -12.75,-0.25 -3.16474,-0.12503 -14.45557,-0.10543 -25.125,0.0625 -55.26018,0.85144 -93.279707,1.32211 -94.999997,1.1875 -1.04045,-0.083 -4.24048,-0.16676 -7.0625,-0.1875 -5.020522,-0.0298 -5.19515,-0.0799 -5.5,-1.1875 -0.417927,-1.5667 -0.3985,-27.639249 0.03125,-28.374999 0.254682,-0.430269 4.5072,-0.60585 16.90625,-0.65625 28.230657,-0.111606 36.524537,0.13113 37.656247,1.03125 0.28726,0.23099 9.90918,0.32939 21.34375,0.25 33.63715,-0.229642 41.40705,-0.20326 48.96875,-0.0625 3.97533,0.07012 9.31992,0.06276 11.96875,0 19.28053,-0.4613 31.78934,-0.2396 32.75,0.5625 0.5946,0.497817 1.94689,0.56378 5.8125,0.34375 14.09937,-0.792281 34.70623,-1.26782 39.6875,-0.90625 6.95535,0.503177 22.31651,0.34522 53.84375,-0.65625 5.2631,-0.16102 10.64825,-0.32922 11.96875,-0.375 1.32068,-0.03616 5.03892,0.03163 8.34375,0.15625 3.29489,0.112707 10.81538,0.1378 16.75,0.09375 5.92499,-0.04386 11.26547,0.08283 11.84375,0.25 0.6658,0.194422 1.7343,-0.01526 2.875,-0.59375 0.99006,-0.502992 2.12595,-0.86672 2.5625,-0.78125 0.42667,0.07601 0.93019,-0.06748 1.09375,-0.34375 0.18212,-0.315278 -0.38129,-0.52772 -1.53125,-0.53125 -1.00012,7.12e-4 -2.21909,-0.06301 -2.75,-0.15625 -0.51882,-0.09349 -5.27421,-0.2009 -10.53125,-0.21875 -5.25687,-0.0082 -13.2456,-0.0768 -17.71875,-0.15625 -4.49487,-0.07901 -9.73621,-0.13348 -11.71875,-0.09375 -1.96078,0.0393 -6.05388,0.14878 -9.0625,0.21875 -3.03763,0.07056 -11.30359,0.13422 -18.4375,0.125 -7.0974,0.0021 -27.91314,0.24957 -46.1875,0.53125 -18.27175,0.291328 -33.21797,0.47611 -33.21875,0.4375 -6.9e-4,-0.03623 -2.17851,-0.05232 -4.8125,-0.09375 -4.91751,-0.07298 -13.09384,-0.34279 -19.375,-0.59375 -7.05468,-0.274118 -37.70577,-0.27512 -70.71875,0 -11.14187,0.100091 -20.4504,0.07527 -20.6875,-0.0625 -0.23945,-0.135319 -3.83667,-0.29432 -8,-0.34375 -4.16073,-0.03982 -9.41711,-0.17393 -11.65625,-0.28125 -3.05161,-0.146603 -33.035087,-0.11844 -37.249997,0.03125 -0.509307,0.01988 -0.59773,-0.47299 -0.40625,-2.25 0.124562,-1.258667 0.27319,-6.83264 0.3125,-12.34375 0.04196,-5.501509 0.18235,-10.11451 0.3125,-10.25 0.36071,-0.384068 2.47531,-0.65557 5.0625,-0.75 2.587192,-0.09443 5.64984,-0.0014 8,0.28125 l -0.0625,-0.03125 c 0.651302,0.07391 15.18203,-0.12544 32.312497,-0.46875 48.89934,-0.98006 57.07565,-1.09015 61.6875,-0.71875 2.3736,0.186741 10.55922,0.19202 18.21875,0.03125 7.64986,-0.16299 19.35528,-0.26488 26.09375,-0.21875 12.04166,0.07753 25.29597,-0.06179 39.6875,-0.5 12.19528,-0.362195 35.72274,-0.58501 51.875,-0.5625 z m -1.9375,66.781249 c 4.80653,0.007 10.34798,0.17911 11.21875,0.4375 l 0.0312,0.0312 c 1.21515,0.36215 5.85218,0.47952 15.65625,0.40625 l 5.3125,-0.0312 2.25,3.125 c 1.2427,1.73859 2.27688,3.31392 2.28125,3.53125 0.004,0.19802 0.63513,0.92751 1.375,1.5625 2.28661,1.9931 6.38884,6.45488 7.75,8.4375 0.67925,0.98652 1.4821,1.84849 1.71875,1.84375 0.23666,-0.005 0.55922,0.36442 0.75,0.84375 0.50682,1.3016 2.66387,4.11347 6.21875,8.15625 0.3659,0.41782 0.75125,1.03314 0.9375,1.40625 0.17864,0.35637 1.17786,1.74441 2.1875,3.0625 0.99745,1.3111 3.38712,4.51497 5.25,7.0625 1.86277,2.54027 4.43621,5.77083 5.6875,7.09375 2.95215,3.13928 6.04904,7.57034 5.78125,8.3125 -0.14154,0.40867 -1.73017,0.55644 -5.65625,0.53125 -3.0007,-0.0147 -12.02365,0.0246 -20.0625,0.0625 -8.04107,0.0476 -15.46352,-0.0375 -16.53125,-0.15625 -1.81602,-0.21003 -1.93908,-0.301 -1.96875,-1.78125 -0.0223,-1.11319 -0.48668,-2.06945 -1.59375,-3.1875 -0.86576,-0.88856 -1.5877,-1.82315 -1.59375,-2.125 -0.006,-0.28253 -0.18705,-0.59768 -0.40625,-0.6875 -0.21671,-0.0826 -2.38974,-3.04011 -4.78125,-6.53125 -2.39149,-3.48871 -5.07789,-7.25533 -5.96875,-8.3125 -0.8985,-1.07632 -1.62065,-2.09516 -1.625,-2.3125 -0.004,-0.20766 -0.81586,-1.21125 -1.78125,-2.25 -0.97264,-1.03861 -2.32075,-3.06401 -3,-4.53125 -1.737,-3.74099 -2.32695,-4.96367 -2.625,-5.25 -0.70201,-0.67442 -3.44402,-4.3391 -5.15625,-6.84375 -1.91419,-2.81946 -4.34384,-5.72255 -7.71875,-9.34375 -1.13796,-1.21408 -1.57667,-2.06694 -1.25,-2.28125 0.17473,-0.1116 1.31551,-0.20699 2.96875,-0.25 1.23993,-0.0323 2.74157,-0.0338 4.34375,-0.0312 z m 52.84375,0.25 c 0.22327,0.005 0.51642,0.0494 0.78125,0.125 0.52236,0.14897 1.41929,0.2462 1.9375,0.1875 1.16999,-0.11016 6.42489,-0.1365 12.40625,-0.125 0.0956,0.2811 0.25691,0.54507 0.28125,0.59375 0.35444,0.70888 1.07618,1.33321 1.71875,1.71875 0.48555,0.29133 0.9556,0.5403 1.4375,0.78125 0.40647,0.5164 0.98143,1.00726 1.34375,1 0.23666,-0.005 2.36715,1.68623 4.75,3.78125 2.82305,2.48238 4.17925,4.01099 4,4.46875 -0.13532,0.36024 0.16633,1.0057 0.65625,1.34375 0.8209,0.57781 0.84678,0.65307 0.0937,0.6875 -0.47072,0.0191 -0.81816,0.24873 -0.8125,0.53125 0.005,0.27286 0.25703,0.44938 0.59375,0.375 0.32008,-0.062 1.51728,0.0332 2.625,0.21875 1.83738,0.31105 3.07416,1.36573 14.21875,12.25 6.71933,6.56422 12.21493,12.09049 12.21875,12.28125 0.004,0.18834 1.74022,1.69652 3.78125,3.25 4.51386,3.43896 8.27172,6.84563 9.6875,8.78125 0.93122,1.26409 1.08789,1.32755 1.8125,0.71875 0.70551,-0.59874 0.923,-0.61192 1.625,0.0625 0.75123,0.71931 -0.008,0.81008 -11.15625,1.0625 -26.3057,0.57308 -36.22012,0.66926 -36.46875,0.4375 -0.1256,-0.12068 -0.50879,0.0304 -0.84375,0.3125 -0.95468,0.82119 -2.07697,0.18484 -2.90625,-1.65625 -0.38486,-0.88129 -2.52544,-3.77176 -4.75,-6.40625 -4.39732,-5.21441 -8.96262,-11.05624 -9.53125,-12.1875 -0.18884,-0.38272 -1.18289,-1.64392 -2.15625,-2.71875 -0.97577,-1.07478 -2.18204,-2.73763 -2.625,-3.625 -0.45281,-0.89684 -1.03169,-1.74939 -1.28125,-1.90625 -0.24686,-0.14481 -1.70787,-1.92662 -3.21875,-3.90625 -1.51307,-1.96992 -3.42187,-4.41921 -4.1875,-5.375 -0.75557,-0.93668 -1.40286,-1.86223 -1.40625,-2.03125 -0.003,-0.17144 -1.94389,-2.13895 -4.28125,-4.375 -2.33739,-2.23605 -4.91328,-5.02008 -5.71875,-6.15625 -0.80524,-1.12408 -1.85267,-2.27941 -2.3125,-2.5625 -0.47673,-0.28274 -0.84012,-0.63139 -0.84375,-0.8125 -0.003,-0.16903 3.97342,-0.4034 8.90625,-0.53125 4.92335,-0.11801 9.06977,-0.34786 9.1875,-0.5 0.0602,-0.0725 0.21424,-0.0989 0.4375,-0.0937 z m 17.21875,0.1875 c 1.02467,0.004 1.8205,-0.008 2.875,0 8.80682,0.0699 8.92543,0.10668 8.84375,4.46875 -0.0254,1.62389 -0.11414,3.04864 -0.1875,3.125 -0.3498,0.38388 -3.45124,-1.53018 -5.84375,-3.625 -1.25715,-1.10529 -2.2808,-1.79466 -3.09375,-2.09375 -0.42543,-0.423 -0.95262,-0.94506 -1.4375,-1.1875 -0.38626,-0.19313 -0.78707,-0.42215 -1.15625,-0.6875 z m -90.9375,0.53125 c 7.30183,-0.0177 8.98206,0.15461 10,0.65625 l 0.0312,0 c 1.47046,0.75836 5.92246,5.34372 5.9375,6.09375 0.004,0.17869 0.32845,0.58186 0.65625,0.90625 1.35833,1.35941 3.27729,3.58323 3.28125,3.78125 0.003,0.1328 0.66561,1.11683 1.5,2.25 4.41283,5.9896 5.3873,7.44703 5.40625,8.03125 0.0265,0.84016 2.29858,4.3595 4.84375,7.5625 1.12265,1.41246 2.05703,2.78962 2.0625,3.0625 0.006,0.28251 0.18945,0.57425 0.4375,0.65625 0.44754,0.15047 2.76178,3.321 8.28125,11.25 4.49734,6.46864 6.38663,9.71872 5.90625,10.21875 -0.14668,0.15512 -4.34353,0.20979 -9.28125,0.0937 -5.25691,-0.13141 -10.65999,-0.0103 -13.03125,0.28125 -4.72557,0.5851 -18.31833,0.8172 -21.6875,0.375 -2.20429,-0.29647 -2.42544,-0.46614 -3.6875,-2.6875 -0.74158,-1.32347 -1.82628,-3.39026 -2.4375,-4.71875 -0.61101,-1.31884 -1.94809,-3.8737 -3.0625,-5.71875 -1.11184,-1.83783 -2.36649,-4.01091 -2.78125,-4.9375 -0.40472,-0.90745 -1.84285,-3.80002 -3.1875,-6.40625 -1.33504,-2.60639 -2.59542,-5.28624 -2.78125,-6 -0.18344,-0.7138 -0.62676,-1.51075 -1,-1.8125 -0.38295,-0.30395 -0.68126,-0.78223 -0.6875,-1.09375 -0.006,-0.30185 -1.39936,-3.31152 -3.15625,-6.71875 -1.74731,-3.40985 -3.43488,-6.68815 -3.75,-7.34375 -0.30741,-0.63402 -1.14569,-1.90335 -1.8125,-2.75 -0.65947,-0.84437 -1.07563,-1.74856 -0.9375,-1.96875 0.13809,-0.22017 -0.32245,-0.7374 -1,-1.15625 -0.67036,-0.42138 -1.21401,-0.95085 -1.21875,-1.1875 -0.004,-0.1775 4.28108,-0.39894 10.71875,-0.53125 2.1459,-0.0441 4.55775,-0.0665 7.09375,-0.0937 3.87426,-0.0422 6.90981,-0.0879 9.34375,-0.0937 z m 106.625,0.65625 c 0.46346,-0.0153 1.09664,0.0503 1.90625,0.1875 0.78529,0.1268 3.84067,0.19198 6.8125,0.0937 4.96847,-0.15511 5.44906,-0.0859 5.9375,0.78125 0.54874,0.98186 0.44372,6.41741 -0.15625,8.0625 -0.40995,1.12186 -1.00108,1.23816 -8.21875,1.75 -6.25747,0.4467 -6.22721,0.45472 -6.84375,-0.65625 -0.35092,-0.63313 -0.67259,-2.9626 -0.75,-5.5 -0.1095,-3.65586 -0.0778,-4.67288 1.3125,-4.71875 z m -137.53125,0.0937 c 0.90364,-0.11923 2.26452,0.25075 2.53125,0.8125 l 0.0312,0 c 0.21713,0.46672 0.32958,1.10783 0.28125,1.46875 -0.0417,0.32938 0.16801,0.487 0.4375,0.3125 0.51276,-0.33157 5.44566,8.73945 5.5,10.125 0.0182,0.42481 0.34358,1.14501 0.75,1.65625 0.39672,0.51144 0.70952,1.28876 0.71875,1.75 0.009,0.42501 0.20654,0.8882 0.40625,0.96875 0.465,0.1791 4.54813,7.81405 4.5625,8.53125 0.01,0.49987 6.81119,13.65389 10.5,20.28125 0.94963,1.69857 2.31299,4.26422 3.03125,5.75 l 1.25,2.65625 -10,0.21875 c -5.4986,0.10293 -11.01893,0.005 -12.25,-0.1875 -1.24051,-0.1805 -8.09511,-0.30081 -15.21875,-0.28125 -7.12588,0.0293 -13.22786,-0.0582 -13.65625,-0.21875 -0.42602,-0.16298 -1.10752,0.004 -1.53125,0.4375 -1.19302,1.22211 -2.13067,0.41989 -2.40625,-2 -0.13826,-1.23167 -0.37559,-6.18821 -0.53125,-11.0625 -0.14362,-4.87696 -0.39394,-9.8142 -0.53125,-11 -0.95214,-7.9722 -1.5415,-13.07636 -1.8125,-15.75 -0.16724,-1.71424 -0.49837,-3.3252 -0.71875,-3.59375 -0.22277,-0.26851 -0.47521,-1.76076 -0.5625,-3.34375 -0.0798,-1.57347 -0.294,-3.16802 -0.5,-3.5625 -0.69689,-1.38235 0.0986,-2.17601 2.34375,-2.25 9.70464,-0.3346 26.49346,-1.23552 26.6875,-1.4375 0.14554,-0.15148 0.3863,-0.24151 0.6875,-0.28125 z m -208.093747,1 c 0.04266,-0.0133 0.06054,10e-4 0.09375,0.0312 0.135081,0.11084 0.04445,0.57409 -0.21875,1.0625 -0.538332,0.98195 -0.69953,0.68726 -0.28125,-0.5 0.107722,-0.32104 0.27829,-0.55392 0.40625,-0.59375 z m 4.46875,0.0312 c 1.243679,-0.0466 2.48626,0.16426 3.65625,0.59375 0.807921,0.29544 2.19351,0.49546 3.15625,0.4375 0.950639,-0.0577 2.26292,-0.0767 3,-0.0625 l 1.28125,0 -0.15625,4.375 c -0.219379,6.89413 0.19288,6.40004 -5.1875,6.375 -2.57525,-0.004 -5.17054,-0.13779 -5.71875,-0.25 -1.31727,-0.27558 -2.1579,-3.18591 -2.25,-7.78125 -0.06218,-3.10299 0.02244,-3.36912 1,-3.53125 0.416529,-0.0693 0.8042,-0.14073 1.21875,-0.15625 z m 34.5,0.25 c 4.399019,-0.004 13.693847,-0.002 20.687497,0 l -0.0312,0.0312 c 2.80547,-9.2e-4 5.58408,0.0259 8.4375,0.0312 -0.077,0.22017 -0.12909,0.44567 -0.25,0.6875 -0.039,0.078 -0.0849,0.24566 -0.125,0.375 -0.20324,0.11064 -0.34879,0.31098 -0.34375,0.5625 0.007,0.35737 -0.49984,1.14483 -1.15625,1.78125 -0.659,0.62681 -1.16249,1.37601 -1.15625,1.6875 0.006,0.30186 -0.83795,1.38761 -1.875,2.4375 -1.02519,1.04 -1.84791,2.07357 -1.84375,2.28125 0.004,0.20524 -1.31639,2.0201 -2.9375,4.0625 -1.60921,2.03247 -3.28351,4.35679 -3.75,5.1875 -0.94698,1.68829 -6.013767,8.88895 -10.031247,14.1875 -1.433328,1.88885 -2.79593,3.71607 -3.0625,4.15625 -3.004318,4.98592 -7.52949,11.85805 -9.09375,13.84375 -2.346356,2.97975 -2.60294,3.03248 -12.3125,3 -5.91887,-0.0142 -10.87368,0.0451 -18.4375,0.28125 -5.49974,0.16579 -22.37376,-0.009 -22.625,-0.25 -0.12564,-0.12069 1.23091,-1.6754 2.96875,-3.4375 2.43398,-2.46453 3.51474,-3.26368 4.625,-3.3125 0.85907,-0.0462 1.10371,-0.14895 0.59375,-0.28125 -0.47594,-0.12091 -0.80093,-0.41787 -0.71875,-0.65625 0.131541,-0.42782 8.79677,-9.55302 18.3125,-19.3125 3.375641,-3.45454 6.26449,-6.02089 6.78125,-6.03125 0.90554,-0.0182 7.17361,-6.28933 7.15625,-7.15625 -0.0051,-0.25597 2.39848,-3.03825 5.375,-6.15625 2.966919,-3.11539 5.37858,-5.79007 5.375,-5.96875 -0.0038,-0.18837 0.30344,-0.69602 0.71875,-1.1875 0.477977,-0.56036 1.14172,-0.75416 4.4375,-0.8125 1.098572,-0.0195 2.51228,-0.0332 4.28125,-0.0312 z m 30.218747,0.0625 c 12.33825,0.0264 24.61822,0.0845 32.5625,0.1875 1.23656,0.0156 2.71365,0.0438 4.21875,0.0625 -0.081,0.23114 -0.1537,0.46365 -0.28125,0.71875 -0.0334,0.0668 -0.0594,0.20628 -0.0937,0.3125 -0.75142,0.67314 -2.18692,2.72195 -3.15625,4.71875 -0.56149,1.15392 -1.00949,2.49544 -1,2.96875 0.009,0.47088 -0.21138,1.00295 -0.5,1.1875 -0.2912,0.17492 -0.91205,1.30606 -1.40625,2.5625 -0.49421,1.25644 -1.35565,3.30563 -1.96875,4.65625 -0.61548,1.35306 -1.44969,3.35513 -1.90625,4.5625 -0.44037,1.17081 -1.48588,3.48552 -2.3125,5.03125 -0.81933,1.54559 -1.87302,3.98531 -2.28125,5.3125 -0.40541,1.34886 -1.17492,3.22137 -1.65625,4.15625 -1.59846,3.05171 -5.00996,9.82506 -6.75,13.40625 l -1.6875,3.53125 -4.9375,0.28125 c -24.37898,1.24472 -37.375917,1.59918 -39.406247,1.0625 -2.212293,-0.57653 -2.69701,-1.3509 -1.5,-2.375 0.370473,-0.31907 0.72272,-0.77074 0.71875,-0.96875 -0.0038,-0.19076 0.91966,-1.82651 2.0625,-3.625 1.145504,-1.78645 2.06666,-3.41732 2.0625,-3.625 -0.0042,-0.20767 1.30877,-2.14511 2.90625,-4.28125 1.600078,-2.12651 3.76329,-5.10442 4.78125,-6.625 1.01574,-1.51086 3.404297,-4.84737 5.249997,-7.375 1.84592,-2.51795 3.34791,-4.82356 3.34375,-5.03125 -0.004,-0.20769 0.83275,-1.46621 1.9375,-2.875 5.66867,-7.29092 10.82738,-16.0659 10,-16.90625 0.35351,-0.35984 0.80009,-0.75995 1,-1.03125 z m -49.562497,0.21875 c 2.120758,-0.0597 6.11078,0.15896 6.40625,0.4375 0.423664,0.40702 -0.52785,2.16508 -1.34375,2.4375 -0.470278,0.15921 -0.88164,0.57543 -0.875,0.90625 0.01358,0.67855 -4.47031,5.17312 -5.1875,5.1875 -0.50709,0.0102 -0.78984,-8.27325 -0.28125,-8.8125 0.08099,-0.0868 0.57432,-0.13635 1.28125,-0.15625 z m 87.437497,0.0312 c 3.10411,0.038 6.3782,0.0794 8.5625,0.0937 3.53934,0.0136 7.52986,0.081 8.84375,0.1875 1.32354,0.10635 5.32595,0.19527 8.96875,0.1875 3.63299,-0.0149 6.59127,0.0643 6.59375,0.1875 0.002,0.1135 -0.37361,1.4448 -0.84375,2.9375 -0.46071,1.48042 -1.37722,5.27185 -2.03125,8.4375 -0.64436,3.16549 -1.42353,6.74965 -1.75,7.9375 -0.31424,1.19488 -1.49086,5.82048 -2.625,10.34375 -1.13669,4.51606 -2.28738,8.64117 -2.53125,9.25 -0.24112,0.62567 -0.38937,1.68904 -0.375,2.40625 0.0142,0.70753 -0.15462,1.90264 -0.375,2.71875 -0.21112,0.79658 -0.62344,2.65555 -0.90625,4.09375 -0.28276,1.44063 -0.85154,3.14838 -1.21875,3.75 l -0.65625,1.125 -11.3125,-0.0625 c -14.44721,-0.0511 -22.42079,-0.20627 -26.9375,-0.53125 -1.95459,-0.13235 -3.84527,-0.22032 -4.15625,-0.1875 -0.70434,0.0528 -0.28061,-1.05699 1.3125,-3.53125 0.7146,-1.10866 1.2873,-2.29189 1.28125,-2.59375 -0.006,-0.30183 1.03147,-2.4988 2.3125,-4.875 1.27402,-2.36639 2.72644,-5.46191 3.21875,-6.8125 0.50178,-1.36048 1.71379,-4.1736 2.71875,-6.34375 3.83306,-8.3532 8.90964,-21.01041 9.75,-24.28125 0.27991,-1.09995 0.66862,-2.16147 0.84375,-2.34375 0.17116,-0.17816 0.34416,-0.66585 0.34375,-1.09375 0.35016,-0.3535 0.775,-0.73706 0.96875,-1 z m 62.375,0.21875 c 4.07392,0.0328 6.50081,0.16246 6.8125,0.40625 0.37553,0.29446 0.71357,2.65752 0.9375,6.71875 0.18009,3.44124 0.60691,7.50916 0.9375,8.9375 0.76465,3.31597 0.99825,5.88492 1.375,16.125 0.15611,4.53609 0.42457,8.38324 0.625,8.5 0.19079,0.11937 0.20596,0.70942 0,1.28125 -0.20341,0.57901 -0.12329,3.23793 0.1875,5.96875 0.31787,2.72103 0.47389,5.05202 0.34375,5.1875 -0.2579,0.26847 -20.18591,0.66245 -25.21875,0.5 -1.97256,-0.0643 -8.23213,-0.10259 -13.96875,-0.0625 -5.73658,0.0401 -10.44619,-0.0574 -10.46875,-0.21875 -0.35268,-2.04874 -0.33213,-3.00189 0.15625,-5.03125 0.74141,-3.02489 1.45052,-6.64012 1.78125,-9.0625 0.12928,-1.02206 0.73661,-3.43117 1.3125,-5.3125 0.57333,-1.88855 1.82808,-7.04223 2.8125,-11.5625 0.97736,-4.51049 1.97669,-9.03321 2.21875,-10.09375 0.23496,-1.05315 0.51807,-2.70067 0.59375,-3.625 0.0664,-0.90723 0.35645,-2.12814 0.65625,-2.71875 0.29045,-0.57352 0.41901,-1.31884 0.28125,-1.5625 -0.15497,-0.26019 -0.0747,-0.54198 0.1875,-0.71875 0.23123,-0.15442 0.30386,-0.65736 0.15625,-1.03125 -0.39156,-0.97506 0.84859,-2.31683 2.03125,-2.4375 0.16896,-0.0172 0.30643,-0.007 0.46875,0.0312 0.60668,0.13759 4.69957,0.1243 9.09375,0 l 0.0625,0 c 6.83763,-0.18898 12.55108,-0.25156 16.625,-0.21875 z m 218.8125,52.1875 c 1.02688,0.0315 1.31672,0.25947 1.5,0.90625 l -0.0312,0.0312 c 0.16104,0.56204 0.11319,1.09671 -0.0625,1.25 -0.17584,0.14608 -0.31909,1.72455 -0.3125,3.5 0.016,2.72708 -0.16552,3.51208 -1.25,4.96875 -0.86331,1.15999 -1.61333,1.67621 -2.3125,1.625 -0.56848,-0.0369 -1.3964,0.0855 -1.875,0.3125 -0.46673,0.21712 -3.50815,0.28032 -6.71875,0.15625 -9.33952,-0.37085 -10.26779,-0.35237 -15.09375,0.40625 -9.15348,1.43721 -10.55439,1.53058 -10.59375,0.53125 -0.0341,-0.85694 -0.0619,-0.86364 -0.5,-0.0625 -0.33546,0.62035 -1.08594,0.87164 -2.8125,0.90625 -1.28226,0.0257 -2.46034,-0.17748 -2.625,-0.4375 -0.16723,-0.26965 -0.60374,-0.30781 -1.03125,-0.0625 -0.41084,0.23294 -1.68696,0.26209 -2.9375,0.0625 -1.53407,-0.24462 -2.29958,-0.18653 -2.40625,0.15625 -0.0976,0.31355 -0.47757,0.21676 -1.0625,-0.28125 -0.92199,-0.80287 -1.35013,-3.46111 -0.65625,-4.15625 0.20366,-0.2022 0.55875,-2.15561 0.78125,-4.3125 l 0.375,-3.9375 1.9375,0.125 c 3.0524,0.1852 24.26441,-0.39802 31.4375,-0.84375 5.0595,-0.31641 6.58502,-0.27841 6.59375,0.15625 0.008,0.39607 0.1977,0.43826 0.625,0.0625 0.56509,-0.49205 2.7828,-0.81092 7.75,-1.03125 0.53766,-0.0229 0.93896,-0.0418 1.28125,-0.0312 z m -56.125,1.75 c 2.61091,-0.10824 3.43336,0.17778 3.15625,0.90625 -0.13268,0.36985 0.0608,0.6638 0.4375,0.65625 0.54818,-0.011 0.66321,0.40396 0.46875,2.03125 -0.12775,1.09684 -0.50153,2.45278 -0.8125,2.96875 -0.31078,0.52321 -0.71634,1.8092 -0.875,2.8125 l -0.3125,1.84375 -4.375,-0.21875 c -4.87524,-0.25259 -13.36653,-0.21259 -19.25,0.0937 -2.10195,0.10975 -5.22783,0.14902 -6.9375,0.0625 -1.70007,-0.0891 -5.51262,-0.18588 -8.4375,-0.15625 l -5.34375,0.0625 -0.28125,-1.28125 c -0.15444,-0.71444 -0.17195,-3.01915 -0.0625,-5.03125 0.18106,-3.25765 0.31119,-3.69332 1.1875,-3.84375 0.32207,-0.0511 1.91806,-0.10552 4.1875,-0.15625 6.80836,-0.15217 19.88986,-0.27685 24.5625,-0.1875 l 0,0.0312 c 2.63419,0.0511 6.88609,-0.11323 9.46875,-0.34375 1.28759,-0.12062 2.34845,-0.21392 3.21875,-0.25 z m -58.71875,0.21875 c 4.76052,-0.0404 9.84063,0.0613 11.34375,0.34375 l 0,0.0625 c 1.48649,0.28185 1.66073,0.47266 1.5625,1.71875 -0.0795,1.0959 -0.0218,1.25044 0.34375,0.6875 0.40344,-0.60477 0.48582,-0.58253 0.5,0.125 0.009,0.4709 -0.28487,0.96472 -0.6875,1.125 -0.37405,0.14035 -0.69263,0.49404 -0.6875,0.75 0.006,0.28252 0.29329,0.25298 0.71875,-0.0937 0.6035,-0.50492 0.66198,-0.36632 0.6875,0.90625 0.02,0.9997 -0.0974,1.39749 -0.46875,1.1875 -0.36417,-0.21012 -0.46053,-0.15326 -0.21875,0.21875 0.19702,0.3077 0.10661,0.88884 -0.1875,1.28125 -0.30151,0.38293 -0.4246,1.13249 -0.28125,1.65625 0.25315,0.9395 0.0265,0.93238 -16.28125,1.34375 -19.94905,0.49403 -22.10563,0.48899 -22.9375,-0.15625 -0.36547,-0.27537 -2.01045,-0.39126 -3.875,-0.25 -3.19401,0.22347 -3.20749,0.24242 -3.15625,-0.9375 0.0258,-0.64313 -0.13082,-2.32041 -0.375,-3.65625 -0.24172,-1.3335 -0.34424,-2.977 -0.1875,-3.59375 l 0.28125,-1.15625 0.375,1.21875 0.34375,1.15625 0.0312,-1.25 c 0.0321,-1.65299 1.29324,-1.91544 7.1875,-1.5625 5.02607,0.30512 12.47899,-0.0215 17.25,-0.75 0.84652,-0.13051 2.38887,-0.21522 4.21875,-0.28125 1.37242,-0.0495 2.91316,-0.0803 4.5,-0.0937 z m -36.0625,0.1875 0.0625,2.875 c 0.0315,1.57445 -0.18206,3.69192 -0.4375,4.6875 -0.29588,1.1486 -0.26208,2.1234 0.0312,2.65625 0.4409,0.7835 -0.84933,0.82591 -26.6875,1.34375 l -27.21875,0.5625 0.0625,-4.09375 c 0.0704,-6.85251 0.21938,-6.97976 7.78125,-7.3125 2.24242,-0.0908 4.14824,-0.26907 4.25,-0.375 0.0254,-0.0265 0.12318,-0.0549 0.28125,-0.0625 0.47424,-0.0227 1.48071,0.0372 2.59375,0.15625 1.46471,0.15905 10.94486,0.13902 21,-0.0625 l 18.28125,-0.375 z m -157.34375,0.125 c 0.18764,-0.04 0.3495,1.052 0.40625,2.4375 l 0.0312,0 c 0.0471,1.38567 0.17487,4.16506 0.28125,6.21875 0.12461,2.48093 0.0465,3.7354 -0.3125,3.78125 -0.28214,0.0249 -1.48958,0.0169 -2.6875,0.0312 -11.14206,0.0904 -13.86133,0.17543 -14.28125,0.4375 -0.25272,0.16694 -5.69697,0.41094 -12.0625,0.53125 -14.394908,0.26917 -14.393317,0.26781 -15.281247,-4.5 -0.338123,-1.80505 -0.64129,-3.87883 -0.65625,-4.625 l -0.03125,-1.34375 5.40625,-0.1875 c 18.795237,-0.68833 28.841737,-1.20478 29.468747,-1.5 0.41877,-0.19926 2.6708,-0.54488 5.0625,-0.78125 2.38222,-0.22652 4.45921,-0.44773 4.65625,-0.5 z m 47.0625,0.28125 0.59375,1.40625 c 0.39728,0.89796 0.61421,3.41414 0.59375,7.09375 l -0.0312,5.71875 -3.5625,0.0625 c -3.81054,0.0763 -11.10604,-0.2145 -18.875,-0.8125 -2.55979,-0.19511 -7.59472,-0.28886 -11.09375,-0.21875 -3.48936,0.07 -6.46814,-0.0789 -6.625,-0.3125 -0.14475,-0.23147 -1.14949,-0.268 -2.25,-0.0937 -1.76064,0.26237 -1.97652,0.19638 -1.71875,-0.5625 0.16204,-0.47435 0.10373,-1.12142 -0.15625,-1.4375 -0.5885,-0.67667 -1.30901,-8.63356 -0.84375,-9.40625 0.28269,-0.47914 9.95775,-0.65055 33.65625,-0.53125 0.38656,0.002 2.87186,-0.18674 5.5,-0.4375 l 4.8125,-0.46875 z m 49.65625,0.5625 c 3.12759,-0.0358 3.88868,0.27969 3.90625,1.15625 0.0125,0.62298 -0.25149,0.94154 -0.78125,0.90625 -0.95297,-0.0582 -1.19512,0.59073 -0.3125,0.875 0.32328,0.0974 0.64714,0.89901 0.75,1.8125 0.67274,6.20464 0.5619,6.44801 -3.25,6.9375 -1.94697,0.24676 -3.47357,0.2032 -4.09375,-0.125 -0.7838,-0.41668 -1.4077,-0.30356 -3.15625,0.5625 -1.98055,0.98182 -2.50128,1.05028 -4.90625,0.625 -1.4861,-0.26257 -3.17569,-0.33148 -3.84375,-0.15625 -0.65623,0.16296 -3.07179,0.27685 -5.46875,0.25 -8.51457,-0.0734 -20.67341,0.21451 -22.375,0.53125 -1.5234,0.28661 -1.67201,0.19815 -1.71875,-0.6875 -0.0206,-0.54795 -0.22688,-2.61238 -0.4375,-4.5625 -0.52599,-5.15192 -0.53449,-6.43044 -0.1875,-7.4375 0.1336,-0.38559 0.21601,-0.57184 0.375,-0.59375 0.159,-0.0219 0.37059,0.12986 0.75,0.4375 0.60423,0.49763 1.66381,0.63315 3.71875,0.46875 1.56306,-0.11589 5.33397,-0.20675 8.34375,-0.21875 9.33073,-0.0662 23.94999,-0.41814 28.71875,-0.65625 1.6241,-0.0845 2.92622,-0.11307 3.96875,-0.125 z m -146.437497,0.3125 c 0.170978,0.0591 0.355755,0.32422 0.46875,0.71875 0.163312,0.55477 0.73193,1.12136 1.3125,1.28125 0.663023,0.17516 0.98929,0.57981 0.9375,1.25 -0.03715,0.55635 0.04354,1.52184 0.21875,2.1875 0.664919,2.56187 0.99399,7.72893 0.46875,7.4375 -0.276063,-0.15391 -0.47539,-0.0496 -0.46875,0.28125 0.0087,0.43222 -2.76864,0.522 -11.8125,0.4375 -23.886343,-0.20977 -22.6198,-0.13616 -23.6875,-1.21875 -1.050639,-1.07329 -1.43165,-1.15921 -2.125,-0.4375 -0.499299,0.51972 -17.19145,1.11444 -18.4375,0.65625 -0.93202,-0.33888 -1.8749,-2.19286 -2.40625,-4.71875 -0.3448,-1.65513 -0.22197,-2.09119 1.21875,-4.09375 1.589291,-2.18426 1.68353,-2.23711 4.78125,-2.5625 1.759919,-0.17784 3.49635,-0.27653 3.875,-0.1875 0.359061,0.0774 10.67088,-0.0582 22.875,-0.3125 l 0.03125,0 c 12.196862,-0.25415 22.3887,-0.55295 22.59375,-0.6875 0.04889,-0.0318 0.09926,-0.051 0.15625,-0.0312 z M 375.72834,179.668 c 1.99037,-0.0752 5.64339,0.30255 6.4375,0.78125 l 0.0312,0 c 1.24206,0.74092 0.66509,2.34187 -0.71875,2 -2.60931,-0.61687 -9.02589,11.49196 -10,18.9375 -0.12872,1.05098 -0.46287,3.19014 -0.78125,4.78125 -0.69294,3.5143 -0.29232,18.8071 0.59375,23 0.33343,1.56841 0.6922,3.69735 0.84375,4.75 0.30876,2.14623 0.49218,2.55795 2.65625,6.875 0.85303,1.70053 1.55646,3.35441 1.5625,3.65625 0.006,0.29218 0.67415,1.28271 1.4375,2.125 0.75372,0.84489 1.50768,1.96489 1.6875,2.5 0.1722,0.51591 0.72571,1.43704 1.1875,1.9375 0.46416,0.50046 1.68103,1.831 2.65625,3 0.97767,1.16897 2.54561,2.54066 3.5,3.03125 0.96408,0.49042 1.74564,1.06393 1.75,1.28125 0.004,0.20768 -1.36663,0.39057 -3,0.375 -1.64296,-0.013 -5.56236,0.20966 -8.71875,0.5 -3.14451,0.2804 -6.27565,0.49639 -6.9375,0.5 -0.65941,0.004 -3.07251,-0.009 -5.46875,0 -2.35999,0.011 -9.65832,0.23691 -16.15625,0.5 l -11.8125,0.5 -0.4375,-1.09375 c -2.7334,-6.44605 -3.51451,-8.49988 -3.84375,-10.34375 -0.21198,-1.17466 -0.69559,-3.29419 -1.09375,-4.71875 -0.38573,-1.40789 -0.74965,-3.8919 -0.78125,-5.46875 -0.0319,-1.59375 -0.27194,-4.27856 -0.5625,-6 -0.70496,-4.19413 -0.95535,-15.31222 -0.4375,-19.125 0.22864,-1.73183 0.48875,-4.59685 0.59375,-6.46875 0.10285,-1.85977 0.41705,-4.29699 0.65625,-5.5 0.23232,-1.18596 0.58056,-3.53273 0.8125,-5.21875 0.22009,-1.6737 0.62162,-3.44202 0.875,-3.9375 0.2556,-0.50521 0.45396,-1.52273 0.4375,-2.34375 -0.0157,-0.78239 0.47825,-2.91619 1.09375,-4.75 0.61325,-1.8241 1.10303,-3.72387 1.09375,-4.1875 -0.0155,-0.77271 0.60409,-0.80688 8.75,-0.6875 14.4045,0.21136 30.14741,-0.28384 30.8125,-0.96875 0.12483,-0.12994 0.61781,-0.19368 1.28125,-0.21875 z m -252.8125,2.34375 c 2.30919,0.0558 5.58524,0.32037 5.84375,0.5625 l 0.0625,0 c 0.24885,0.24142 0.85624,0.47727 1.28125,0.46875 0.425,-0.009 1.087,0.27613 1.40625,0.65625 0.3293,0.39928 1.03567,0.69993 1.65625,0.6875 1.67103,-0.0335 2.06745,1.29564 3.59375,12.84375 0.0785,0.66035 0.43603,3.10871 0.8125,5.5 1.01943,6.50938 1.18034,10.11432 0.875,20.3125 -0.48738,16.66399 -0.89922,23.17055 -1.5625,25.875 -0.34797,1.44192 -0.72701,3.39523 -0.8125,4.3125 -0.0857,0.90761 -0.39146,2.34602 -0.6875,3.125 -0.67927,1.78805 -0.88379,2.95597 -0.6875,3.78125 0.002,0.0102 -0.003,0.0211 0,0.0312 -0.15604,0.23973 -0.25,0.53519 -0.25,0.84375 l 0,1.09375 c -0.14895,-0.009 -0.29046,-0.0262 -0.4375,-0.0312 -1.18199,-0.0343 -3.85014,-0.29106 -5.96875,-0.53125 -4.67302,-0.52959 -18.62676,-0.76029 -31.749997,-0.5625 l -9.78125,0.15625 0.28125,-2.34375 c 0.288843,-2.58343 0.87899,-4.14192 1.59375,-4.15625 0.255963,-0.005 0.50566,-0.24871 0.5,-0.53125 -0.0057,-0.28492 0.39407,-1.08414 0.9375,-1.8125 1.893242,-2.56723 3.11165,-4.83828 3.875,-7.25 0.427122,-1.34933 0.94173,-2.57433 1.15625,-2.71875 0.224127,-0.14704 0.5236,-1.31223 0.6875,-2.65625 0.151829,-1.3438 0.49544,-2.67539 0.78125,-3 0.276278,-0.3172 0.5473,-1.45127 0.5625,-2.5 0.01769,-1.04642 0.16369,-2.63138 0.34375,-3.53125 0.248144,-1.23941 0.1436,-1.75527 -0.4375,-2.0625 -0.915562,-0.48176 -1.10022,-2.97556 -0.375,-5 0.642566,-1.80781 0.4284,-11.63896 -0.3125,-15.21875 -0.323938,-1.57821 -0.72193,-4.24517 -0.90625,-5.96875 -0.860843,-8.11657 -2.4273,-11.92495 -6.34375,-15.6875 -1.30801,-1.25897 -2.37063,-2.47016 -2.375,-2.6875 -0.0042,-0.20764 4.5203,-0.48142 10.125,-0.59375 8.659407,-0.17352 23.776357,-0.97355 24.062497,-1.28125 0.0382,-0.0397 0.17475,-0.0755 0.40625,-0.0937 0.4051,-0.032 1.07402,-0.0498 1.84375,-0.0312 z m 36.0625,1.59375 c 1.85734,-0.0179 4.79325,3.4e-4 6.625,0.0312 l 3.28125,0.0312 -0.28125,2.25 c -0.32567,2.55512 -0.14718,8.83505 0.34375,13.5625 0.75702,7.15479 2.12697,12.18012 4.1875,15.1875 0.61218,0.89362 1.12083,1.76108 1.125,1.96875 0.0102,0.5095 -7.91766,10.16186 -9.28125,11.3125 -0.5844,0.49247 -2.24468,2.47629 -3.6875,4.375 -1.43337,1.88644 -2.91493,3.69936 -3.21875,3.96875 -0.30636,0.26223 -2.00323,2.31209 -3.75,4.59375 -1.74917,2.28173 -3.41367,4.31677 -3.75,4.53125 -0.35304,0.2245 -0.84607,0.68333 -1.1875,1.125 -0.32272,0.41236 -1.43814,1.80436 -2.5,3.0625 -3.48182,4.18381 -6.66494,8.65762 -8.09375,11.375 -0.45349,0.87726 -0.80473,1.33568 -1.15625,1.5 l 0,-1.46875 c 0,-0.31755 -0.0855,-0.63112 -0.25,-0.875 0.38195,-1.00347 0.66785,-2.51555 0.84375,-4.5625 0.14428,-1.72051 0.5513,-4.28798 0.9375,-5.75 0.377,-1.44007 0.8054,-4.25209 0.9375,-6.21875 0.12008,-1.96394 0.28684,-4.27803 0.375,-5.0625 0.0881,-0.78448 0.1411,-4.40583 0.0937,-8.09375 -0.0544,-3.68049 0.1096,-8.70457 0.34375,-11.125 0.33783,-3.39368 0.23607,-5.71307 -0.3125,-10.0625 -0.40269,-3.09616 -0.79375,-6.76219 -0.90625,-8.15625 -0.10283,-1.39422 -0.54533,-3.71574 -1,-5.1875 -0.55546,-1.80068 -0.70737,-3.28011 -0.5,-4.625 0.1761,-1.09788 0.24608,-2.17358 0.15625,-2.4375 -0.0799,-0.25206 -0.44951,-1.4819 -0.8125,-2.71875 l -0.6875,-2.28125 3.4375,-0.0937 c 1.88576,-0.0475 6.07061,-0.10709 9.375,-0.125 3.29228,-0.0201 7.46218,-0.0232 9.3125,-0.0312 z"
       style="fill:#000000;fill-rule:evenodd;stroke:none"
       inkscape:connector-curvature="0" />
  </g>
</svg>
