<?xml version="1.0" encoding="UTF-8" standalone="no"?>
<!-- Created with Inkscape (http://www.inkscape.org/) -->
<svg
   xmlns:dc="http://purl.org/dc/elements/1.1/"
   xmlns:cc="http://creativecommons.org/ns#"
   xmlns:rdf="http://www.w3.org/1999/02/22-rdf-syntax-ns#"
   xmlns:svg="http://www.w3.org/2000/svg"
   xmlns="http://www.w3.org/2000/svg"
   xmlns:xlink="http://www.w3.org/1999/xlink"
   xmlns:sodipodi="http://sodipodi.sourceforge.net/DTD/sodipodi-0.dtd"
   xmlns:inkscape="http://www.inkscape.org/namespaces/inkscape"
   height="772.03894"
   id="svg2266"
   inkscape:version="0.46"
   sodipodi:docbase="/Users/johnolsen/Desktop/OpenClipart/unsorted"
   sodipodi:docname="ch_teau-fort_01.svg"
   sodipodi:version="0.32"
   width="568.20117"
   inkscape:output_extension="org.inkscape.output.svg.inkscape"
   version="1.0">
  <metadata
     id="metadata3">
    <rdf:RDF>
      <cc:Work
         rdf:about="">
        <dc:title>Chateau</dc:title>
        <dc:description />
        <dc:subject>
          <rdf:Bag>
            <rdf:li />
            <rdf:li>building</rdf:li>
            <rdf:li>0x8863bcc</rdf:li>
          </rdf:Bag>
        </dc:subject>
        <dc:publisher>
          <cc:Agent
             rdf:about="http://www.openclipart.org">
            <dc:title>Jean Maurice Le Clec</dc:title>
          </cc:Agent>
        </dc:publisher>
        <dc:creator>
          <cc:Agent>
            <dc:title>Jean Maurice Le Clec</dc:title>
          </cc:Agent>
        </dc:creator>
        <dc:rights>
          <cc:Agent>
            <dc:title>Jean Maurice Le Clec</dc:title>
          </cc:Agent>
        </dc:rights>
        <dc:date />
        <dc:format>image/svg+xml</dc:format>
        <dc:type
           rdf:resource="http://purl.org/dc/dcmitype/StillImage" />
        <cc:license
           rdf:resource="http://web.resource.org/cc/PublicDomain" />
        <dc:language>en</dc:language>
      </cc:Work>
      <cc:License
         rdf:about="http://web.resource.org/cc/PublicDomain">
        <cc:permits
           rdf:resource="http://web.resource.org/cc/Reproduction" />
        <cc:permits
           rdf:resource="http://web.resource.org/cc/Distribution" />
        <cc:permits
           rdf:resource="http://web.resource.org/cc/DerivativeWorks" />
      </cc:License>
    </rdf:RDF>
  </metadata>
  <defs
     id="defs2268">
    <inkscape:perspective
       sodipodi:type="inkscape:persp3d"
       inkscape:vp_x="0 : 386.01947 : 1"
       inkscape:vp_y="0 : 1000 : 0"
       inkscape:vp_z="639.26031 : 386.01947 : 1"
       inkscape:persp3d-origin="319.63016 : 257.34631 : 1"
       id="perspective120" />
    <linearGradient
       id="linearGradient5500">
      <stop
         id="stop5501"
         offset="0.0000000"
         style="stop-color:#5b2300;stop-opacity:1.0000000;" />
      <stop
         id="stop5503"
         offset="1.0000000"
         style="stop-color:#fa890d;stop-opacity:1.0000000;" />
    </linearGradient>
    <linearGradient
       id="linearGradient4845">
      <stop
         id="stop4846"
         offset="0.0000000"
         style="stop-color:#822310;stop-opacity:1.0000000;" />
      <stop
         id="stop4847"
         offset="0.50000000"
         style="stop-color:#cc371d;stop-opacity:1.0000000;" />
      <stop
         id="stop4848"
         offset="1.0000000"
         style="stop-color:#df670d;stop-opacity:1.0000000;" />
    </linearGradient>
    <linearGradient
       id="linearGradient2309">
      <stop
         id="stop2310"
         offset="0.0000000"
         style="stop-color:#000000;stop-opacity:1.0000000;" />
      <stop
         id="stop2312"
         offset="0.50000000"
         style="stop-color:#7f7f62;stop-opacity:1.0000000;" />
      <stop
         id="stop2311"
         offset="1.0000000"
         style="stop-color:#ffffff;stop-opacity:1.0000000;" />
    </linearGradient>
    <linearGradient
       id="linearGradient2288">
      <stop
         id="stop2289"
         offset="0.0000000"
         style="stop-color:#000000;stop-opacity:1.0000000;" />
      <stop
         id="stop2291"
         offset="0.50000000"
         style="stop-color:#506668;stop-opacity:1.0000000;" />
      <stop
         id="stop2290"
         offset="1.0000000"
         style="stop-color:#d1d1d1;stop-opacity:1.0000000;" />
    </linearGradient>
    <linearGradient
       id="linearGradient2283">
      <stop
         id="stop2284"
         offset="0.0000000"
         style="stop-color:#3e0000;stop-opacity:1.0000000;" />
      <stop
         id="stop2285"
         offset="1.0000000"
         style="stop-color:#d40000;stop-opacity:1.0000000;" />
    </linearGradient>
    <linearGradient
       id="linearGradient2279">
      <stop
         id="stop2280"
         offset="0"
         style="stop-color:#000;stop-opacity:1;" />
      <stop
         id="stop2281"
         offset="1"
         style="stop-color:#fff;stop-opacity:1;" />
    </linearGradient>
    <linearGradient
       id="linearGradient2286"
       inkscape:collect="always"
       x1="136.81488"
       x2="180.59212"
       xlink:href="#linearGradient2283"
       y1="87.079842"
       y2="119.26899"
       gradientTransform="scale(0.7802378,1.2816606)"
       gradientUnits="userSpaceOnUse" />
    <linearGradient
       id="linearGradient2287"
       inkscape:collect="always"
       x1="128.00151"
       x2="210.56648"
       xlink:href="#linearGradient2288"
       y1="181.73692"
       y2="181.73692"
       gradientTransform="scale(0.7711361,1.2967879)"
       gradientUnits="userSpaceOnUse" />
    <linearGradient
       id="linearGradient2306"
       inkscape:collect="always"
       x1="277.67963"
       x2="463.84491"
       xlink:href="#linearGradient2279"
       y1="521.75623"
       y2="521.75623"
       gradientTransform="scale(1.0537196,0.9490191)"
       gradientUnits="userSpaceOnUse" />
    <linearGradient
       id="linearGradient2308"
       inkscape:collect="always"
       x1="169.42224"
       x2="278.96927"
       xlink:href="#linearGradient2309"
       y1="661.75336"
       y2="661.75336"
       gradientTransform="scale(1.7369119,0.5757345)"
       gradientUnits="userSpaceOnUse" />
    <linearGradient
       id="linearGradient2329"
       inkscape:collect="always"
       x1="217.35799"
       x2="139.62781"
       xlink:href="#linearGradient2288"
       y1="162.8847"
       y2="168.64899"
       gradientTransform="scale(0.7389246,1.3533181)"
       gradientUnits="userSpaceOnUse" />
    <linearGradient
       id="linearGradient2330"
       inkscape:collect="always"
       x1="187.84453"
       x2="165.07124"
       xlink:href="#linearGradient2283"
       y1="108.53927"
       y2="128.38924"
       gradientTransform="scale(0.7802378,1.2816606)"
       gradientUnits="userSpaceOnUse" />
    <linearGradient
       id="linearGradient2340"
       inkscape:collect="always"
       x1="113.48224"
       x2="227.78238"
       xlink:href="#linearGradient2288"
       y1="956.12921"
       y2="956.12921"
       gradientTransform="scale(2.3466492,0.4261395)"
       gradientUnits="userSpaceOnUse" />
    <linearGradient
       id="linearGradient4844"
       inkscape:collect="always"
       spreadMethod="repeat"
       x1="395.09421"
       x2="406.70663"
       xlink:href="#linearGradient4845"
       y1="475.95377"
       y2="475.95377"
       gradientTransform="scale(0.9093446,1.0996931)"
       gradientUnits="userSpaceOnUse" />
    <linearGradient
       id="linearGradient5482"
       inkscape:collect="always"
       xlink:href="#linearGradient4845"
       gradientTransform="scale(1.4457502,0.6916824)"
       x1="536.56226"
       y1="277.03934"
       x2="556.31177"
       y2="277.03934"
       gradientUnits="userSpaceOnUse" />
    <linearGradient
       id="linearGradient5483"
       inkscape:collect="always"
       xlink:href="#linearGradient4845"
       gradientTransform="scale(1.2125958,0.8246771)"
       x1="-651.7251"
       y1="-218.35088"
       x2="-626.13129"
       y2="-218.35088"
       gradientUnits="userSpaceOnUse" />
    <linearGradient
       id="linearGradient5484"
       inkscape:collect="always"
       xlink:href="#linearGradient4845"
       gradientTransform="scale(0.9309838,1.0741326)"
       x1="-191.29636"
       y1="715.14813"
       x2="-173.95717"
       y2="715.14813"
       gradientUnits="userSpaceOnUse" />
    <linearGradient
       id="linearGradient5485"
       inkscape:collect="always"
       xlink:href="#linearGradient4845"
       gradientTransform="scale(1.4457502,0.6916824)"
       x1="-77.688843"
       y1="1017.2728"
       x2="-57.939304"
       y2="1017.2728"
       gradientUnits="userSpaceOnUse" />
    <linearGradient
       id="linearGradient5486"
       inkscape:collect="always"
       xlink:href="#linearGradient4845"
       gradientTransform="scale(1.2125958,0.8246771)"
       x1="-594.14972"
       y1="-190.59093"
       x2="-568.55591"
       y2="-190.59093"
       gradientUnits="userSpaceOnUse" />
    <linearGradient
       id="linearGradient5487"
       inkscape:collect="always"
       xlink:href="#linearGradient4845"
       gradientTransform="scale(0.9309838,1.0741326)"
       x1="-168.63463"
       y1="662.00024"
       x2="-151.29546"
       y2="662.00024"
       gradientUnits="userSpaceOnUse" />
    <linearGradient
       id="linearGradient5488"
       inkscape:collect="always"
       xlink:href="#linearGradient4845"
       gradientTransform="scale(1.4457502,0.6916824)"
       x1="-136.06046"
       y1="950.88617"
       x2="-116.31092"
       y2="950.88617"
       gradientUnits="userSpaceOnUse" />
    <linearGradient
       id="linearGradient5489"
       inkscape:collect="always"
       xlink:href="#linearGradient4845"
       gradientTransform="scale(1.2125958,0.8246771)"
       x1="-151.98718"
       y1="771.9549"
       x2="-126.39334"
       y2="771.9549"
       gradientUnits="userSpaceOnUse" />
    <linearGradient
       id="linearGradient5490"
       inkscape:collect="always"
       xlink:href="#linearGradient4845"
       gradientTransform="scale(0.9309838,1.0741326)"
       x1="-176.6329"
       y1="612.31854"
       x2="-159.29373"
       y2="612.31854"
       gradientUnits="userSpaceOnUse" />
    <linearGradient
       id="linearGradient5491"
       inkscape:collect="always"
       x1="480.88379"
       x2="503.62296"
       xlink:href="#linearGradient5500"
       y1="234.7018"
       y2="153.14676"
       gradientTransform="scale(1.4457502,0.6916824)"
       gradientUnits="userSpaceOnUse" />
    <linearGradient
       gradientTransform="scale(1.2125958,0.8246771)"
       id="linearGradient5492"
       inkscape:collect="always"
       x1="-719.10883"
       x2="-696.36963"
       xlink:href="#linearGradient5500"
       y1="-257.3663"
       y2="-338.92136"
       gradientUnits="userSpaceOnUse" />
    <linearGradient
       gradientTransform="scale(0.9309838,1.0741326)"
       id="linearGradient5493"
       inkscape:collect="always"
       x1="-231.31319"
       x2="-208.57401"
       xlink:href="#linearGradient5500"
       y1="650.49854"
       y2="568.94348"
       gradientUnits="userSpaceOnUse" />
    <linearGradient
       gradientTransform="scale(1.4457502,0.6916824)"
       id="linearGradient5494"
       inkscape:collect="always"
       x1="-76.186905"
       x2="-53.447739"
       xlink:href="#linearGradient5500"
       y1="1049.1934"
       y2="967.63824"
       gradientUnits="userSpaceOnUse" />
    <linearGradient
       gradientTransform="scale(1.2125958,0.8246771)"
       id="linearGradient5495"
       inkscape:collect="always"
       x1="-613.04413"
       x2="-590.30493"
       xlink:href="#linearGradient5500"
       y1="-197.80568"
       y2="-279.36075"
       gradientUnits="userSpaceOnUse" />
    <linearGradient
       gradientTransform="scale(0.9309838,1.0741326)"
       id="linearGradient5496"
       inkscape:collect="always"
       x1="-169.62621"
       x2="-146.88705"
       xlink:href="#linearGradient5500"
       y1="630.34534"
       y2="548.79022"
       gradientUnits="userSpaceOnUse" />
    <linearGradient
       gradientTransform="scale(1.4457502,0.6916824)"
       id="linearGradient5497"
       inkscape:collect="always"
       x1="-101.03931"
       x2="-78.30014"
       xlink:href="#linearGradient5500"
       y1="862.87128"
       y2="781.31622"
       gradientUnits="userSpaceOnUse" />
    <linearGradient
       gradientTransform="scale(1.2125958,0.8246771)"
       id="linearGradient5498"
       inkscape:collect="always"
       x1="-109.45488"
       x2="-86.715714"
       xlink:href="#linearGradient5500"
       y1="755.09253"
       y2="673.53748"
       gradientUnits="userSpaceOnUse" />
    <linearGradient
       gradientTransform="scale(0.9309838,1.0741326)"
       id="linearGradient5499"
       inkscape:collect="always"
       x1="-140.57362"
       x2="-117.83446"
       xlink:href="#linearGradient5500"
       y1="572.2464"
       y2="490.69135"
       gradientUnits="userSpaceOnUse" />
    <linearGradient
       id="linearGradient6142"
       inkscape:collect="always"
       x1="524.51593"
       x2="847.90912"
       xlink:href="#linearGradient2288"
       y1="148.26962"
       y2="148.26962"
       gradientTransform="scale(0.604522,1.6541996)"
       gradientUnits="userSpaceOnUse" />
    <linearGradient
       id="linearGradient6148"
       inkscape:collect="always"
       x1="343.77185"
       x2="528.56598"
       xlink:href="#linearGradient2283"
       y1="-71.212975"
       y2="-71.212975"
       gradientTransform="scale(0.9061254,1.1036)"
       gradientUnits="userSpaceOnUse" />
    <linearGradient
       inkscape:collect="always"
       xlink:href="#linearGradient2288"
       id="linearGradient2262"
       x1="207.76483"
       y1="604.25354"
       x2="434.21762"
       y2="604.25354"
       gradientTransform="scale(1.2817521,0.7801821)"
       gradientUnits="userSpaceOnUse" />
    <linearGradient
       inkscape:collect="always"
       xlink:href="#linearGradient2279"
       id="linearGradient2264"
       x1="277.67963"
       y1="521.75623"
       x2="463.84491"
       y2="521.75623"
       gradientTransform="scale(1.0537196,0.9490191)"
       gradientUnits="userSpaceOnUse" />
    <linearGradient
       inkscape:collect="always"
       xlink:href="#linearGradient2309"
       id="linearGradient2266"
       x1="169.42224"
       y1="661.75336"
       x2="278.96927"
       y2="661.75336"
       gradientTransform="scale(1.7369119,0.5757345)"
       gradientUnits="userSpaceOnUse" />
    <linearGradient
       inkscape:collect="always"
       xlink:href="#linearGradient4845"
       id="linearGradient2268"
       gradientTransform="scale(0.9309838,1.0741326)"
       x1="-176.6329"
       y1="612.31854"
       x2="-159.29373"
       y2="612.31854"
       gradientUnits="userSpaceOnUse" />
    <linearGradient
       inkscape:collect="always"
       xlink:href="#linearGradient5500"
       id="linearGradient2270"
       gradientTransform="scale(0.9309838,1.0741326)"
       x1="-140.57362"
       y1="572.2464"
       x2="-117.83446"
       y2="490.69135"
       gradientUnits="userSpaceOnUse" />
    <linearGradient
       inkscape:collect="always"
       xlink:href="#linearGradient4845"
       id="linearGradient2272"
       gradientTransform="scale(1.2125958,0.8246771)"
       x1="-151.98718"
       y1="771.9549"
       x2="-126.39334"
       y2="771.9549"
       gradientUnits="userSpaceOnUse" />
    <linearGradient
       inkscape:collect="always"
       xlink:href="#linearGradient5500"
       id="linearGradient2274"
       gradientTransform="scale(1.2125958,0.8246771)"
       x1="-109.45488"
       y1="755.09253"
       x2="-86.715714"
       y2="673.53748"
       gradientUnits="userSpaceOnUse" />
    <linearGradient
       inkscape:collect="always"
       xlink:href="#linearGradient4845"
       id="linearGradient2276"
       gradientTransform="scale(1.4457502,0.6916824)"
       x1="-136.06046"
       y1="950.88617"
       x2="-116.31092"
       y2="950.88617"
       gradientUnits="userSpaceOnUse" />
    <linearGradient
       inkscape:collect="always"
       xlink:href="#linearGradient5500"
       id="linearGradient2278"
       gradientTransform="scale(1.4457502,0.6916824)"
       x1="-101.03931"
       y1="862.87128"
       x2="-78.30014"
       y2="781.31622"
       gradientUnits="userSpaceOnUse" />
    <linearGradient
       inkscape:collect="always"
       xlink:href="#linearGradient2283"
       id="linearGradient2494"
       gradientUnits="userSpaceOnUse"
       gradientTransform="matrix(0.9061254,0,0,1.1036,-114.62976,180.56003)"
       x1="343.77185"
       y1="-71.212975"
       x2="528.56598"
       y2="-71.212975" />
    <linearGradient
       inkscape:collect="always"
       xlink:href="#linearGradient4845"
       id="linearGradient2528"
       gradientUnits="userSpaceOnUse"
       gradientTransform="matrix(0.9093446,0,0,1.0996931,-114.62976,180.56003)"
       spreadMethod="repeat"
       x1="395.09421"
       y1="475.95377"
       x2="406.70663"
       y2="475.95377" />
    <linearGradient
       inkscape:collect="always"
       xlink:href="#linearGradient2288"
       id="linearGradient2547"
       gradientUnits="userSpaceOnUse"
       gradientTransform="matrix(1.2817521,0,0,0.7801821,-114.62976,180.56003)"
       x1="207.76483"
       y1="604.25354"
       x2="434.21762"
       y2="604.25354" />
    <linearGradient
       inkscape:collect="always"
       xlink:href="#linearGradient2288"
       id="linearGradient2550"
       gradientUnits="userSpaceOnUse"
       gradientTransform="matrix(0.604522,0,0,1.6541996,-114.62976,180.56003)"
       x1="524.51593"
       y1="148.26962"
       x2="847.90912"
       y2="148.26962" />
    <linearGradient
       inkscape:collect="always"
       xlink:href="#linearGradient2288"
       id="linearGradient2552"
       gradientUnits="userSpaceOnUse"
       gradientTransform="scale(0.7389246,1.3533181)"
       x1="217.35799"
       y1="162.8847"
       x2="139.62781"
       y2="168.64899" />
    <linearGradient
       inkscape:collect="always"
       xlink:href="#linearGradient2283"
       id="linearGradient2554"
       gradientUnits="userSpaceOnUse"
       gradientTransform="scale(0.7802378,1.2816606)"
       x1="187.84453"
       y1="108.53927"
       x2="165.07124"
       y2="128.38924" />
    <linearGradient
       inkscape:collect="always"
       xlink:href="#linearGradient2288"
       id="linearGradient2556"
       gradientUnits="userSpaceOnUse"
       gradientTransform="scale(0.7711361,1.2967879)"
       x1="128.00151"
       y1="181.73692"
       x2="210.56648"
       y2="181.73692" />
    <linearGradient
       inkscape:collect="always"
       xlink:href="#linearGradient2283"
       id="linearGradient2558"
       gradientUnits="userSpaceOnUse"
       gradientTransform="scale(0.7802378,1.2816606)"
       x1="136.81488"
       y1="87.079842"
       x2="180.59212"
       y2="119.26899" />
    <linearGradient
       inkscape:collect="always"
       xlink:href="#linearGradient4845"
       id="linearGradient2560"
       gradientUnits="userSpaceOnUse"
       gradientTransform="scale(0.9309838,1.0741326)"
       x1="-176.6329"
       y1="612.31854"
       x2="-159.29373"
       y2="612.31854" />
    <linearGradient
       inkscape:collect="always"
       xlink:href="#linearGradient5500"
       id="linearGradient2562"
       gradientUnits="userSpaceOnUse"
       gradientTransform="scale(0.9309838,1.0741326)"
       x1="-140.57362"
       y1="572.2464"
       x2="-117.83446"
       y2="490.69135" />
    <linearGradient
       inkscape:collect="always"
       xlink:href="#linearGradient4845"
       id="linearGradient2564"
       gradientUnits="userSpaceOnUse"
       gradientTransform="scale(1.2125958,0.8246771)"
       x1="-151.98718"
       y1="771.9549"
       x2="-126.39334"
       y2="771.9549" />
    <linearGradient
       inkscape:collect="always"
       xlink:href="#linearGradient5500"
       id="linearGradient2566"
       gradientUnits="userSpaceOnUse"
       gradientTransform="scale(1.2125958,0.8246771)"
       x1="-109.45488"
       y1="755.09253"
       x2="-86.715714"
       y2="673.53748" />
    <linearGradient
       inkscape:collect="always"
       xlink:href="#linearGradient4845"
       id="linearGradient2568"
       gradientUnits="userSpaceOnUse"
       gradientTransform="scale(1.4457502,0.6916824)"
       x1="-136.06046"
       y1="950.88617"
       x2="-116.31092"
       y2="950.88617" />
    <linearGradient
       inkscape:collect="always"
       xlink:href="#linearGradient5500"
       id="linearGradient2570"
       gradientUnits="userSpaceOnUse"
       gradientTransform="scale(1.4457502,0.6916824)"
       x1="-101.03931"
       y1="862.87128"
       x2="-78.30014"
       y2="781.31622" />
    <linearGradient
       inkscape:collect="always"
       xlink:href="#linearGradient4845"
       id="linearGradient2572"
       gradientUnits="userSpaceOnUse"
       gradientTransform="scale(0.9309838,1.0741326)"
       x1="-191.29636"
       y1="715.14813"
       x2="-173.95717"
       y2="715.14813" />
    <linearGradient
       inkscape:collect="always"
       xlink:href="#linearGradient5500"
       id="linearGradient2574"
       gradientUnits="userSpaceOnUse"
       gradientTransform="scale(0.9309838,1.0741326)"
       x1="-231.31319"
       y1="650.49854"
       x2="-208.57401"
       y2="568.94348" />
    <linearGradient
       inkscape:collect="always"
       xlink:href="#linearGradient4845"
       id="linearGradient2576"
       gradientUnits="userSpaceOnUse"
       gradientTransform="scale(1.2125958,0.8246771)"
       x1="-651.7251"
       y1="-218.35088"
       x2="-626.13129"
       y2="-218.35088" />
    <linearGradient
       inkscape:collect="always"
       xlink:href="#linearGradient5500"
       id="linearGradient2578"
       gradientUnits="userSpaceOnUse"
       gradientTransform="scale(1.2125958,0.8246771)"
       x1="-719.10883"
       y1="-257.3663"
       x2="-696.36963"
       y2="-338.92136" />
    <linearGradient
       inkscape:collect="always"
       xlink:href="#linearGradient4845"
       id="linearGradient2580"
       gradientUnits="userSpaceOnUse"
       gradientTransform="scale(1.4457502,0.6916824)"
       x1="536.56226"
       y1="277.03934"
       x2="556.31177"
       y2="277.03934" />
    <linearGradient
       inkscape:collect="always"
       xlink:href="#linearGradient5500"
       id="linearGradient2582"
       gradientUnits="userSpaceOnUse"
       gradientTransform="scale(1.4457502,0.6916824)"
       x1="480.88379"
       y1="234.7018"
       x2="503.62296"
       y2="153.14676" />
    <linearGradient
       inkscape:collect="always"
       xlink:href="#linearGradient4845"
       id="linearGradient2584"
       gradientUnits="userSpaceOnUse"
       gradientTransform="scale(0.9309838,1.0741326)"
       x1="-168.63463"
       y1="662.00024"
       x2="-151.29546"
       y2="662.00024" />
    <linearGradient
       inkscape:collect="always"
       xlink:href="#linearGradient5500"
       id="linearGradient2586"
       gradientUnits="userSpaceOnUse"
       gradientTransform="scale(0.9309838,1.0741326)"
       x1="-169.62621"
       y1="630.34534"
       x2="-146.88705"
       y2="548.79022" />
    <linearGradient
       inkscape:collect="always"
       xlink:href="#linearGradient4845"
       id="linearGradient2588"
       gradientUnits="userSpaceOnUse"
       gradientTransform="scale(1.2125958,0.8246771)"
       x1="-594.14972"
       y1="-190.59093"
       x2="-568.55591"
       y2="-190.59093" />
    <linearGradient
       inkscape:collect="always"
       xlink:href="#linearGradient5500"
       id="linearGradient2590"
       gradientUnits="userSpaceOnUse"
       gradientTransform="scale(1.2125958,0.8246771)"
       x1="-613.04413"
       y1="-197.80568"
       x2="-590.30493"
       y2="-279.36075" />
    <linearGradient
       inkscape:collect="always"
       xlink:href="#linearGradient4845"
       id="linearGradient2592"
       gradientUnits="userSpaceOnUse"
       gradientTransform="scale(1.4457502,0.6916824)"
       x1="-77.688843"
       y1="1017.2728"
       x2="-57.939304"
       y2="1017.2728" />
    <linearGradient
       inkscape:collect="always"
       xlink:href="#linearGradient5500"
       id="linearGradient2594"
       gradientUnits="userSpaceOnUse"
       gradientTransform="scale(1.4457502,0.6916824)"
       x1="-76.186905"
       y1="1049.1934"
       x2="-53.447739"
       y2="967.63824" />
    <linearGradient
       inkscape:collect="always"
       xlink:href="#linearGradient4845"
       id="linearGradient2596"
       gradientUnits="userSpaceOnUse"
       gradientTransform="scale(0.9309838,1.0741326)"
       x1="-176.6329"
       y1="612.31854"
       x2="-159.29373"
       y2="612.31854" />
    <linearGradient
       inkscape:collect="always"
       xlink:href="#linearGradient5500"
       id="linearGradient2598"
       gradientUnits="userSpaceOnUse"
       gradientTransform="scale(0.9309838,1.0741326)"
       x1="-140.57362"
       y1="572.2464"
       x2="-117.83446"
       y2="490.69135" />
    <linearGradient
       inkscape:collect="always"
       xlink:href="#linearGradient4845"
       id="linearGradient2600"
       gradientUnits="userSpaceOnUse"
       gradientTransform="scale(1.2125958,0.8246771)"
       x1="-151.98718"
       y1="771.9549"
       x2="-126.39334"
       y2="771.9549" />
    <linearGradient
       inkscape:collect="always"
       xlink:href="#linearGradient5500"
       id="linearGradient2602"
       gradientUnits="userSpaceOnUse"
       gradientTransform="scale(1.2125958,0.8246771)"
       x1="-109.45488"
       y1="755.09253"
       x2="-86.715714"
       y2="673.53748" />
    <linearGradient
       inkscape:collect="always"
       xlink:href="#linearGradient4845"
       id="linearGradient2604"
       gradientUnits="userSpaceOnUse"
       gradientTransform="scale(1.4457502,0.6916824)"
       x1="-136.06046"
       y1="950.88617"
       x2="-116.31092"
       y2="950.88617" />
    <linearGradient
       inkscape:collect="always"
       xlink:href="#linearGradient5500"
       id="linearGradient2606"
       gradientUnits="userSpaceOnUse"
       gradientTransform="scale(1.4457502,0.6916824)"
       x1="-101.03931"
       y1="862.87128"
       x2="-78.30014"
       y2="781.31622" />
    <linearGradient
       inkscape:collect="always"
       xlink:href="#linearGradient2279"
       id="linearGradient2608"
       gradientUnits="userSpaceOnUse"
       gradientTransform="scale(1.0537196,0.9490191)"
       x1="277.67963"
       y1="521.75623"
       x2="463.84491"
       y2="521.75623" />
    <linearGradient
       inkscape:collect="always"
       xlink:href="#linearGradient2309"
       id="linearGradient2610"
       gradientUnits="userSpaceOnUse"
       gradientTransform="scale(1.7369119,0.5757345)"
       x1="169.42224"
       y1="661.75336"
       x2="278.96927"
       y2="661.75336" />
    <linearGradient
       inkscape:collect="always"
       xlink:href="#linearGradient2279"
       id="linearGradient2612"
       gradientUnits="userSpaceOnUse"
       gradientTransform="scale(1.0537196,0.9490191)"
       x1="277.67963"
       y1="521.75623"
       x2="463.84491"
       y2="521.75623" />
    <linearGradient
       inkscape:collect="always"
       xlink:href="#linearGradient2309"
       id="linearGradient2614"
       gradientUnits="userSpaceOnUse"
       gradientTransform="scale(1.7369119,0.5757345)"
       x1="169.42224"
       y1="661.75336"
       x2="278.96927"
       y2="661.75336" />
    <linearGradient
       inkscape:collect="always"
       xlink:href="#linearGradient2288"
       id="linearGradient2616"
       gradientUnits="userSpaceOnUse"
       gradientTransform="scale(2.3466492,0.4261395)"
       x1="113.48224"
       y1="956.12921"
       x2="227.78238"
       y2="956.12921" />
  </defs>
  <sodipodi:namedview
     bordercolor="#666666"
     borderopacity="1.0"
     id="base"
     inkscape:cx="263.59698"
     inkscape:cy="415.03834"
     inkscape:guide-bbox="true"
     inkscape:pageopacity="0.0000000"
     inkscape:pageshadow="2"
     inkscape:window-height="721"
     inkscape:window-width="1138"
     inkscape:window-x="0"
     inkscape:window-y="0"
     inkscape:zoom="0.32707541"
     pagecolor="#fffdff"
     showguides="true"
     showgrid="false"
     inkscape:current-layer="svg2266">
    <sodipodi:guide
       id="guide2301"
       orientation="horizontal"
       position="534.91731" />
    <sodipodi:guide
       id="guide2302"
       orientation="horizontal"
       position="555.93434" />
    <sodipodi:guide
       id="guide2303"
       orientation="horizontal"
       position="511.86637" />
    <sodipodi:guide
       id="guide2305"
       orientation="horizontal"
       position="376.27263" />
  </sodipodi:namedview>
  <path
     style="fill:url(#linearGradient2550);fill-opacity:1;fill-rule:evenodd;stroke:#000000;stroke-width:1pt;stroke-linecap:butt;stroke-linejoin:miter;stroke-opacity:1"
     id="path5520"
     d="M 203.07664,688.10537 C 203.07664,688.10537 231.62058,297.17758 213.00497,222.71514 C 194.38936,148.2527 344.55527,138.32438 345.79631,196.65328 C 347.03736,254.98219 383.02753,662.04352 396.67898,681.90017 C 410.33043,701.75682 203.07664,688.10537 203.07664,688.10537 z" />
  <path
     style="fill:url(#linearGradient2547);fill-opacity:1;fill-rule:evenodd;stroke:#000000;stroke-width:1pt;stroke-linecap:butt;stroke-linejoin:miter;stroke-opacity:1"
     sodipodi:nodetypes="ccccccccccccccccccc"
     id="path2339"
     d="M 165.03233,738.85252 L 441.30458,739.69998 L 414.18583,580.37734 L 387.49082,564.69931 L 348.93134,564.27558 L 351.47372,594.78417 L 319.27021,594.78417 L 320.96513,565.12304 L 289.60908,565.12304 L 292.99893,593.93671 L 262.49033,593.08925 L 263.33779,565.12304 L 230.28682,565.9705 L 234.52412,593.93671 L 203.16807,593.93671 L 204.01553,565.12304 L 175.20186,564.27558 C 175.20186,564.27558 151.47296,595.63163 152.32042,611.73339 C 153.16788,627.83514 165.03233,738.85252 165.03233,738.85252 z" />
  <g
     id="g2343"
     transform="translate(-114.62976,180.56003)">
    <path
       style="fill:#000000;fill-opacity:0.62895969;fill-rule:evenodd;stroke:none;stroke-width:1pt;stroke-linecap:butt;stroke-linejoin:miter;stroke-opacity:1"
       sodipodi:nodetypes="ccccc"
       id="path2342"
       d="M 275.42479,421.85129 L 278.81463,437.95304 C 278.81463,437.95304 470.34079,443.88527 522.0359,440.49543 C 544.06989,431.17335 512.71383,421.00383 512.71383,421.00383 L 275.42479,421.85129 z" />
    <path
       style="fill:url(#linearGradient2616);fill-opacity:1;fill-rule:evenodd;stroke:#000000;stroke-width:1pt;stroke-linecap:butt;stroke-linejoin:miter;stroke-opacity:1"
       sodipodi:nodetypes="cccccccccccccccccc"
       id="path2341"
       d="M 533.90036,430.3259 L 528.81559,399.81731 L 502.12058,384.13928 L 463.5611,383.71555 L 466.10348,414.22414 L 433.89997,414.22414 L 435.59489,384.56301 L 404.23884,384.56301 L 407.62869,413.37668 L 377.12009,412.52922 L 377.96755,384.56301 L 344.91658,385.41047 L 349.15388,413.37668 L 317.79783,413.37668 L 318.64529,384.56301 L 289.83162,383.71555 C 289.83162,383.71555 266.10272,415.0716 266.95018,431.17336 L 533.90036,430.3259 z" />
  </g>
  <g
     transform="translate(79.43874,188.54507)"
     id="g2318">
    <path
       style="fill:url(#linearGradient2612);fill-opacity:1;fill-rule:evenodd;stroke:#000000;stroke-width:1pt;stroke-linecap:butt;stroke-linejoin:miter;stroke-opacity:1"
       sodipodi:nodetypes="ccccc"
       id="path2300"
       d="M 293.22146,582.86886 C 294.06892,582.86886 324.57752,421.00383 320.34021,407.44445 L 462.71364,408.29192 L 488.13746,582.86885 L 293.22146,582.86886 z" />
    <path
       style="fill:#39393c;fill-opacity:0.66063352;fill-rule:evenodd;stroke:none;stroke-width:1pt;stroke-linecap:butt;stroke-linejoin:miter;stroke-opacity:1"
       sodipodi:nodetypes="cccccc"
       id="path2313"
       d="M 320.34021,403.20715 L 320.34021,421.00383 C 320.34021,421.00383 386.44216,437.95304 463.5611,421.85129 C 463.5611,421.00383 461.01872,396.42746 461.01872,398.12239 L 363.56072,395.58 L 320.34021,403.20715 z" />
    <path
       style="fill:url(#linearGradient2614);fill-opacity:1;fill-rule:evenodd;stroke:#000000;stroke-width:1.08790827pt;stroke-linecap:butt;stroke-linejoin:miter;stroke-opacity:1"
       sodipodi:nodetypes="ccccccccccccccccc"
       id="path2307"
       d="M 312.85795,411.84928 C 308.38133,396.6591 294.95144,351.08854 294.95144,351.08854 L 322.70653,351.08854 L 324.49718,380.51952 L 353.14759,380.51952 L 346.88032,350.13916 L 375.53073,352.03793 L 373.74008,379.57014 L 402.39049,379.57014 L 399.70451,351.08854 L 430.14559,352.03793 L 426.56427,380.51952 L 453.42405,381.46891 L 451.63339,350.13916 L 483.86511,351.08854 L 469.5399,411.84928 C 469.5399,411.84928 313.75328,410.8999 312.85795,411.84928 z" />
  </g>
  <path
     style="fill:#000000;fill-opacity:0.60180999;fill-rule:evenodd;stroke:none;stroke-width:1pt;stroke-linecap:butt;stroke-linejoin:miter;stroke-opacity:1"
     id="path2969"
     d="M 180.28663,564.27558 L 192.99854,564.27558 L 185.37139,610.88593 L 178.5917,611.73339 L 208.25284,738.85252 L 162.48995,738.85252 L 150.6255,584.61464 L 180.28663,564.27558 z" />
  <g
     transform="translate(-292.59646,188.54507)"
     id="g2335">
    <path
       style="fill:url(#linearGradient2608);fill-opacity:1;fill-rule:evenodd;stroke:#000000;stroke-width:1pt;stroke-linecap:butt;stroke-linejoin:miter;stroke-opacity:1"
       sodipodi:nodetypes="ccccc"
       id="path2336"
       d="M 293.22146,582.86886 C 294.06892,582.86886 324.57752,421.00383 320.34021,407.44445 L 462.71364,408.29192 L 488.13746,582.86885 L 293.22146,582.86886 z" />
    <path
       style="fill:#39393c;fill-opacity:0.66063352;fill-rule:evenodd;stroke:none;stroke-width:1pt;stroke-linecap:butt;stroke-linejoin:miter;stroke-opacity:1"
       sodipodi:nodetypes="cccccc"
       id="path2337"
       d="M 320.34021,403.20715 L 320.34021,421.00383 C 320.34021,421.00383 386.44216,437.95304 463.5611,421.85129 C 463.5611,421.00383 461.01872,396.42746 461.01872,398.12239 L 363.56072,395.58 L 320.34021,403.20715 z" />
    <path
       style="fill:url(#linearGradient2610);fill-opacity:1;fill-rule:evenodd;stroke:#000000;stroke-width:1.08790827pt;stroke-linecap:butt;stroke-linejoin:miter;stroke-opacity:1"
       sodipodi:nodetypes="ccccccccccccccccc"
       id="path2338"
       d="M 312.85795,411.84928 C 308.38133,396.6591 294.95144,351.08854 294.95144,351.08854 L 322.70653,351.08854 L 324.49718,380.51952 L 353.14759,380.51952 L 346.88032,350.13916 L 375.53073,352.03793 L 373.74008,379.57014 L 402.39049,379.57014 L 399.70451,351.08854 L 430.14559,352.03793 L 426.56427,380.51952 L 453.42405,381.46891 L 451.63339,350.13916 L 483.86511,351.08854 L 469.5399,411.84928 C 469.5399,411.84928 313.75328,410.8999 312.85795,411.84928 z" />
  </g>
  <g
     id="g4219"
     transform="translate(-114.62976,180.56003)">
    <path
       style="fill:#000000;fill-opacity:0.50678735;fill-rule:evenodd;stroke:none;stroke-width:1pt;stroke-linecap:butt;stroke-linejoin:miter;stroke-opacity:1"
       id="path2347"
       d="M 204.23807,464.22433 L 205.08553,481.17355 L 187.28885,482.02101 L 188.13632,490.49562 L 205.93299,487.10578 L 201.69569,556.59757 L 218.64491,556.59757 L 210.1703,488.8007 L 222.88221,489.64816 L 222.03475,480.32609 L 211.01776,480.32609 L 213.56014,463.37687 L 204.23807,464.22433 z" />
    <path
       style="fill:#000000;fill-opacity:0.79638008;fill-rule:evenodd;stroke:none;stroke-width:1pt;stroke-linecap:butt;stroke-linejoin:miter;stroke-opacity:1"
       id="path3591"
       d="M 213.46875,463.3125 L 204.25,464.1875 L 208.84375,468.34375 L 213.03125,467.6875 L 213.46875,463.3125 z M 204.6875,464.625 L 205.34375,481.09375 L 207.96875,481.96875 L 208.40625,468.5625 L 204.6875,464.625 z M 205.34375,481.09375 L 188,482.40625 L 192.40625,483.9375 L 208.40625,482.40625 L 205.34375,481.09375 z M 211.28125,480.40625 L 214.125,483.0625 L 222.03125,483.28125 L 222.03125,480.40625 L 211.28125,480.40625 z M 187.78125,482.625 L 188.21875,490.5 L 192.625,489.625 L 191.96875,484.15625 L 187.78125,482.625 z M 206.21875,487.4375 L 201.84375,556.5625 L 209.0625,556.09375 L 208.84375,489.1875 L 206.21875,487.4375 z" />
  </g>
  <path
     style="fill:url(#linearGradient2528);fill-opacity:1;fill-rule:evenodd;stroke:#8c1b00;stroke-width:1pt;stroke-linecap:butt;stroke-linejoin:miter;stroke-opacity:1"
     sodipodi:nodetypes="ccccc"
     id="path4222"
     d="M 246.51306,738.36752 L 245.27202,686.86433 C 245.27202,686.86433 267.61075,646.53051 301.11885,686.86433 C 302.35989,686.86434 302.98041,738.98804 302.98041,738.98804 L 246.51306,738.36752 z" />
  <g
     transform="translate(259.85074,176.90934)"
     id="g4849">
    <path
       style="fill:#000000;fill-opacity:0.50678735;fill-rule:evenodd;stroke:none;stroke-width:1pt;stroke-linecap:butt;stroke-linejoin:miter;stroke-opacity:1"
       id="path4850"
       d="M 204.23807,464.22433 L 205.08553,481.17355 L 187.28885,482.02101 L 188.13632,490.49562 L 205.93299,487.10578 L 201.69569,556.59757 L 218.64491,556.59757 L 210.1703,488.8007 L 222.88221,489.64816 L 222.03475,480.32609 L 211.01776,480.32609 L 213.56014,463.37687 L 204.23807,464.22433 z" />
    <path
       style="fill:#000000;fill-opacity:0.79638008;fill-rule:evenodd;stroke:none;stroke-width:1pt;stroke-linecap:butt;stroke-linejoin:miter;stroke-opacity:1"
       id="path4851"
       d="M 213.46875,463.3125 L 204.25,464.1875 L 208.84375,468.34375 L 213.03125,467.6875 L 213.46875,463.3125 z M 204.6875,464.625 L 205.34375,481.09375 L 207.96875,481.96875 L 208.40625,468.5625 L 204.6875,464.625 z M 205.34375,481.09375 L 188,482.40625 L 192.40625,483.9375 L 208.40625,482.40625 L 205.34375,481.09375 z M 211.28125,480.40625 L 214.125,483.0625 L 222.03125,483.28125 L 222.03125,480.40625 L 211.28125,480.40625 z M 187.78125,482.625 L 188.21875,490.5 L 192.625,489.625 L 191.96875,484.15625 L 187.78125,482.625 z M 206.21875,487.4375 L 201.84375,556.5625 L 209.0625,556.09375 L 208.84375,489.1875 L 206.21875,487.4375 z" />
  </g>
  <g
     transform="translate(490.70424,-204.52977)"
     id="g5504">
    <rect
       y="649.02399"
       x="-163.81737"
       width="14.892488"
       style="fill:url(#linearGradient2596);fill-opacity:1;fill-rule:evenodd;stroke:url(#linearGradient2598);stroke-width:1pt;stroke-linecap:butt;stroke-linejoin:miter;stroke-opacity:1"
       ry="4.9641623"
       rx="4.9641623"
       id="rect4852"
       height="17.374569" />
    <rect
       y="626.68524"
       x="-183.67401"
       width="29.784975"
       style="fill:url(#linearGradient2600);fill-opacity:1;fill-rule:evenodd;stroke:url(#linearGradient2602);stroke-width:1pt;stroke-linecap:butt;stroke-linejoin:miter;stroke-opacity:1"
       ry="4.9641623"
       rx="4.9641623"
       id="rect4853"
       height="19.856649" />
    <rect
       y="651.50604"
       x="-196.08443"
       width="27.302895"
       style="fill:url(#linearGradient2604);fill-opacity:1;fill-rule:evenodd;stroke:url(#linearGradient2606);stroke-width:1pt;stroke-linecap:butt;stroke-linejoin:miter;stroke-opacity:1"
       ry="4.9641623"
       rx="4.9641623"
       id="rect4854"
       height="12.410406" />
  </g>
  <g
     transform="matrix(0.694953,0,0,0.723735,434.41944,197.67508)"
     id="g5512">
    <rect
       y="702.38873"
       x="-156.37111"
       width="14.892488"
       style="fill:url(#linearGradient2584);fill-opacity:1;fill-rule:evenodd;stroke:url(#linearGradient2586);stroke-width:1pt;stroke-linecap:butt;stroke-linejoin:miter;stroke-opacity:1"
       ry="6.8590889"
       rx="7.1431675"
       id="rect4855"
       height="17.374569" />
    <rect
       y="-167.10429"
       x="-719.83844"
       width="29.784975"
       transform="matrix(-4.318516e-2,-0.999067,0.999067,-4.318516e-2,0,0)"
       style="fill:url(#linearGradient2588);fill-opacity:1;fill-rule:evenodd;stroke:url(#linearGradient2590);stroke-width:1pt;stroke-linecap:butt;stroke-linejoin:miter;stroke-opacity:1"
       ry="7.1426044"
       rx="6.8595877"
       id="rect4856"
       height="19.856649" />
    <rect
       y="697.4245"
       x="-111.69366"
       width="27.302895"
       style="fill:url(#linearGradient2592);fill-opacity:1;fill-rule:evenodd;stroke:url(#linearGradient2594);stroke-width:1pt;stroke-linecap:butt;stroke-linejoin:miter;stroke-opacity:1"
       ry="6.8590889"
       rx="7.1431675"
       id="rect4857"
       height="12.410406" />
  </g>
  <g
     transform="translate(577.87094,-53.996668)"
     id="g5516">
    <rect
       y="759.47662"
       x="-177.4688"
       width="14.892488"
       style="fill:url(#linearGradient2572);fill-opacity:1;fill-rule:evenodd;stroke:url(#linearGradient2574);stroke-width:1pt;stroke-linecap:butt;stroke-linejoin:miter;stroke-opacity:1"
       ry="4.9641623"
       rx="4.9641623"
       id="rect4858"
       height="17.374569" />
    <rect
       y="-189.99728"
       x="-789.65411"
       width="29.784971"
       transform="matrix(-4.318516e-2,-0.999067,0.999067,-4.318516e-2,0,0)"
       style="fill:url(#linearGradient2576);fill-opacity:1;fill-rule:evenodd;stroke:url(#linearGradient2578);stroke-width:0.99999981pt;stroke-linecap:butt;stroke-linejoin:miter;stroke-opacity:1"
       ry="4.9641614"
       rx="4.9641614"
       id="rect4859"
       height="19.856646" />
    <rect
       y="185.41803"
       x="776.35999"
       width="27.302904"
       transform="matrix(3.03721e-2,0.999539,-0.999539,3.03721e-2,0,0)"
       style="fill:url(#linearGradient2580);fill-opacity:1;fill-rule:evenodd;stroke:url(#linearGradient2582);stroke-width:1.00000038pt;stroke-linecap:butt;stroke-linejoin:miter;stroke-opacity:1"
       ry="4.9641643"
       rx="4.9641643"
       id="rect4860"
       height="12.41041" />
  </g>
  <g
     transform="translate(329.66274,95.557874)"
     id="g5508">
    <rect
       y="649.02399"
       x="-163.81737"
       width="14.892488"
       style="fill:url(#linearGradient2560);fill-opacity:1;fill-rule:evenodd;stroke:url(#linearGradient2562);stroke-width:1pt;stroke-linecap:butt;stroke-linejoin:miter;stroke-opacity:1"
       ry="4.9641623"
       rx="4.9641623"
       id="rect5509"
       height="17.374569" />
    <rect
       y="626.68524"
       x="-183.67401"
       width="29.784975"
       style="fill:url(#linearGradient2564);fill-opacity:1;fill-rule:evenodd;stroke:url(#linearGradient2566);stroke-width:1pt;stroke-linecap:butt;stroke-linejoin:miter;stroke-opacity:1"
       ry="4.9641623"
       rx="4.9641623"
       id="rect5510"
       height="19.856649" />
    <rect
       y="651.50604"
       x="-196.08443"
       width="27.302895"
       style="fill:url(#linearGradient2568);fill-opacity:1;fill-rule:evenodd;stroke:url(#linearGradient2570);stroke-width:1pt;stroke-linecap:butt;stroke-linejoin:miter;stroke-opacity:1"
       ry="4.9641623"
       rx="4.9641623"
       id="rect5511"
       height="12.410406" />
  </g>
  <path
     style="fill:#000000;fill-opacity:0.65158374;fill-rule:evenodd;stroke:none;stroke-width:1pt;stroke-linecap:butt;stroke-linejoin:miter;stroke-opacity:1"
     sodipodi:nodetypes="cccccccc"
     id="path6143"
     d="M 235.3437,369.15793 L 251.12474,388.21415 L 239.06682,386.5325 C 239.06682,386.5325 263.425,445.86746 258.46084,454.55474 C 239.30915,458.85066 234.74888,458.08693 214.92161,479.61055 C 216.37561,463.30077 220.45121,426.2458 220.45121,426.2458 L 208.0408,346.8192 L 235.3437,369.15793 z" />
  <g
     transform="translate(74.71584,176.13859)"
     id="g2314">
    <path
       style="fill:url(#linearGradient2556);fill-opacity:1;fill-rule:evenodd;stroke:none;stroke-width:1pt;stroke-linecap:butt;stroke-linejoin:miter;stroke-opacity:1"
       sodipodi:nodetypes="ccccc"
       id="path2278"
       d="M 110.52917,186.80985 L 98.706589,262.48092 C 101.18867,273.65028 130.0919,310.38085 161.90187,272.43104 C 164.06825,238.49827 158.78838,186.80986 146.33439,182.13961 L 110.52917,186.80985 z" />
    <path
       style="fill:#39393c;fill-opacity:0.66063352;fill-rule:evenodd;stroke:none;stroke-width:1pt;stroke-linecap:butt;stroke-linejoin:miter;stroke-opacity:1"
       sodipodi:nodetypes="ccccccc"
       id="path2297"
       d="M 111.01738,194.30804 L 109.74618,198.12162 L 109.32245,200.24027 C 109.32245,200.24027 113.55976,217.61322 155.08534,203.20638 C 155.50907,200.24027 154.23788,196.42669 154.23788,196.42669 L 133.05136,185.83343 L 111.01738,194.30804 z" />
    <path
       style="fill:url(#linearGradient2558);fill-opacity:1;fill-rule:evenodd;stroke:none;stroke-width:1pt;stroke-linecap:butt;stroke-linejoin:miter;stroke-opacity:1"
       sodipodi:nodetypes="cccc"
       id="path2275"
       d="M 124.5399,90.29143 C 126.09665,90.29143 118.31291,166.57212 98.075174,186.80985 C 96.518425,203.9341 149.44788,203.9341 165.01537,191.4801 C 136.99389,152.56139 124.5399,90.29143 124.5399,90.29143 z" />
  </g>
  <path
     style="fill:#000000;fill-opacity:0.65158374;fill-rule:evenodd;stroke:none;stroke-width:1pt;stroke-linecap:butt;stroke-linejoin:miter;stroke-opacity:1"
     id="path6144"
     d="M 344.09998,361.40326 C 344.09998,361.40326 360.31429,400.92564 362.00328,413.76196 C 363.69227,426.59829 358.6253,365.11904 358.6253,365.11904 L 344.09998,361.40326 z" />
  <g
     transform="translate(-19.37763,77.794834)"
     id="g2331">
    <path
       transform="matrix(-1,0,0,1,524.9223,11.01699)"
       style="fill:url(#linearGradient2552);fill-opacity:1;fill-rule:evenodd;stroke:none;stroke-width:1pt;stroke-linecap:butt;stroke-linejoin:miter;stroke-opacity:1"
       sodipodi:nodetypes="ccccc"
       id="path2323"
       d="M 110.52917,186.80985 L 99.947629,271.1682 C 99.947629,276.13237 126.36877,322.79125 161.90187,272.43104 C 160.34513,239.73931 158.78838,186.80986 146.33439,182.13961 L 110.52917,186.80985 z" />
    <path
       transform="matrix(-1,0,0,1,524.9223,11.01699)"
       style="fill:#39393c;fill-opacity:0.66063352;fill-rule:evenodd;stroke:none;stroke-width:1pt;stroke-linecap:butt;stroke-linejoin:miter;stroke-opacity:1"
       sodipodi:nodetypes="ccccccc"
       id="path2324"
       d="M 111.01738,194.30804 L 109.74618,198.12162 L 109.32245,200.24027 C 109.32245,200.24027 113.55976,217.61322 155.08534,203.20638 C 155.50907,200.24027 154.23788,196.42669 154.23788,196.42669 L 133.05136,185.83343 L 111.01738,194.30804 z" />
    <path
       transform="matrix(-1,0,0,1,524.9223,11.01699)"
       style="fill:url(#linearGradient2554);fill-opacity:1;fill-rule:evenodd;stroke:none;stroke-width:1pt;stroke-linecap:butt;stroke-linejoin:miter;stroke-opacity:1"
       sodipodi:nodetypes="cccc"
       id="path2325"
       d="M 124.5399,90.29143 C 126.09665,90.29143 118.31291,166.57212 98.075174,186.80985 C 96.518425,203.9341 149.44788,203.9341 165.01537,191.4801 C 136.99389,152.56139 124.5399,90.29143 124.5399,90.29143 z" />
  </g>
  <path
     style="fill:#000000;fill-opacity:0.65158374;fill-rule:evenodd;stroke:none;stroke-width:1pt;stroke-linecap:butt;stroke-linejoin:miter;stroke-opacity:1"
     id="path6145"
     d="M 262.35285,264.11743 L 277.21597,264.11743 L 278.22936,318.16511 L 261.33946,316.81392 L 262.35285,264.11743 z" />
  <path
     style="fill:#000000;fill-opacity:0.70588235;fill-rule:evenodd;stroke:none;stroke-width:1pt;stroke-linecap:butt;stroke-linejoin:miter;stroke-opacity:1"
     sodipodi:nodetypes="ccccccc"
     id="path6146"
     d="M 267.75762,264.11743 L 266.74423,312.76035 L 277.89156,313.77374 L 278.22936,317.82732 L 260.66386,316.81392 L 262.01506,264.45523 L 267.75762,264.11743 z" />
  <path
     style="fill:url(#linearGradient2494);fill-opacity:1;fill-rule:evenodd;stroke:#000000;stroke-width:1pt;stroke-linecap:butt;stroke-linejoin:miter;stroke-opacity:1"
     sodipodi:nodetypes="cccc"
     id="path6147"
     d="M 197.49563,203.31378 C 219.11471,164.12921 239.38258,73.599334 221.81708,0.63496225 C 221.81709,-0.71623775 283.97193,135.75417 363.69226,183.0459 C 340.722,216.8257 278.56716,188.45067 197.49563,203.31378 z" />
</svg>
