<?xml version="1.0" encoding="UTF-8" standalone="no"?>
<!-- Created with Sodipodi ("http://www.sodipodi.com/") -->
<svg
   xmlns:dc="http://purl.org/dc/elements/1.1/"
   xmlns:cc="http://web.resource.org/cc/"
   xmlns:rdf="http://www.w3.org/1999/02/22-rdf-syntax-ns#"
   xmlns:svg="http://www.w3.org/2000/svg"
   xmlns="http://www.w3.org/2000/svg"
   xmlns:xlink="http://www.w3.org/1999/xlink"
   xmlns:sodipodi="http://sodipodi.sourceforge.net/DTD/sodipodi-0.dtd"
   xmlns:inkscape="http://www.inkscape.org/namespaces/inkscape"
   height="466.77289"
   id="svg570"
   sodipodi:docbase="/Users/johnolsen/Desktop/OpenClipart/unsorted"
   sodipodi:docname="ladybug_01.svg"
   sodipodi:version="0.32"
   width="446.71469"
   inkscape:version="0.45.1"
   inkscape:output_extension="org.inkscape.output.svg.inkscape"
   version="1.0">
  <metadata
     id="metadata3">
    <rdf:RDF>
      <cc:Work
         rdf:about="">
        <dc:title>ladybug</dc:title>
        <dc:description />
        <dc:subject>
          <rdf:Bag>
            <rdf:li />
            <rdf:li>insect</rdf:li>
            <rdf:li>animal</rdf:li>
            <rdf:li>ladybug</rdf:li>
          </rdf:Bag>
        </dc:subject>
        <dc:publisher>
          <cc:Agent
             rdf:about="http://www.openclipart.org">
            <dc:title>vance</dc:title>
          </cc:Agent>
        </dc:publisher>
        <dc:creator>
          <cc:Agent>
            <dc:title>vance</dc:title>
          </cc:Agent>
        </dc:creator>
        <dc:rights>
          <cc:Agent>
            <dc:title>vance</dc:title>
          </cc:Agent>
        </dc:rights>
        <dc:date />
        <dc:format>image/svg+xml</dc:format>
        <dc:type
           rdf:resource="http://purl.org/dc/dcmitype/StillImage" />
        <cc:license
           rdf:resource="http://web.resource.org/cc/PublicDomain" />
        <dc:language>en</dc:language>
      </cc:Work>
      <cc:License
         rdf:about="http://web.resource.org/cc/PublicDomain">
        <cc:permits
           rdf:resource="http://web.resource.org/cc/Reproduction" />
        <cc:permits
           rdf:resource="http://web.resource.org/cc/Distribution" />
        <cc:permits
           rdf:resource="http://web.resource.org/cc/DerivativeWorks" />
      </cc:License>
    </rdf:RDF>
  </metadata>
  <defs
     id="defs572">
    <linearGradient
       id="linearGradient573">
      <stop
         id="stop574"
         offset="0.000000"
         style="stop-color:#fffffa;stop-opacity:0.823529;" />
      <stop
         id="stop577"
         offset="1.000000"
         style="stop-color:#ffffff;stop-opacity:0;" />
    </linearGradient>
    <linearGradient
       id="linearGradient617">
      <stop
         id="stop618"
         offset="0.000000"
         style="stop-color:#261abf;stop-opacity:1;" />
      <stop
         id="stop619"
         offset="1.000000"
         style="stop-color:#07f22f;stop-opacity:1;" />
    </linearGradient>
    <linearGradient
       id="linearGradient574">
      <stop
         id="stop575"
         offset="0.000000"
         style="stop-color:#ff0700;stop-opacity:1;" />
      <stop
         id="stop576"
         offset="1.000000"
         style="stop-color:#e50a17;stop-opacity:1;" />
    </linearGradient>
    <radialGradient
       cx="304.68839"
       cy="297.74656"
       fx="304.68839"
       fy="297.74656"
       gradientUnits="userSpaceOnUse"
       id="radialGradient577"
       r="165.54951"
       spreadMethod="pad"
       xlink:href="#linearGradient574"
       gradientTransform="scale(0.9702535,1.0306584)" />
    <linearGradient
       id="linearGradient610"
       xlink:href="#linearGradient617" />
    <radialGradient
       id="radialGradient572"
       xlink:href="#linearGradient573"
       gradientTransform="scale(0.9857475,1.0144586)"
       cx="270.73363"
       cy="348.70817"
       fx="270.73363"
       fy="348.70817"
       r="65.305771"
       gradientUnits="userSpaceOnUse" />
  </defs>
  <sodipodi:namedview
     id="base" />
  <path
     d="M 248.3957,77.1549 C 248.8537,72.3269 250.2087,68.0959 251.7927,63.5249 C 255.3697,55.5209 259.4557,48.1318 264.2047,40.765 C 268.7007,34.5858 273.4867,28.6725 278.2907,22.7299 C 284.5397,15.5762 289.8117,11.4279 298.7867,8.2212 C 308.6167,7.2421 314.7097,8.6406 323.2537,13.5923 C 327.2147,17.0342 330.4277,20.6446 333.5887,24.8322 L 320.4937,34.5363 C 318.4447,31.8308 316.3877,29.3654 313.8667,27.0924 C 309.9157,24.7139 307.1847,23.9722 302.5807,24.3164 C 297.2487,26.026 294.5477,28.982 290.8887,33.1823 C 286.3867,38.7372 281.8657,44.2436 277.6357,50.0089 C 273.5467,56.2709 270.0187,62.4769 267.0497,69.3449 C 266.2187,71.9339 265.1307,74.4039 265.3857,77.1549 L 248.3957,77.1549 z "
     id="path582"
     style="fill:#000000;fill-opacity:1;fill-rule:nonzero;stroke:none;stroke-width:1pt;stroke-linecap:butt;stroke-linejoin:miter;stroke-opacity:1" />
  <path
     d="M 303.3957,108.4049 C 304.7857,103.1969 307.4597,98.9489 310.6417,93.8759 C 315.5197,87.0149 320.6607,80.3719 325.8037,73.7069 C 329.9697,68.4089 333.9827,63.5019 339.0827,59.0879 C 345.9367,54.5819 351.6107,52.2889 359.7587,51.2219 C 369.0427,52.8709 374.9997,55.8479 382.1237,62.0219 C 386.3707,67.1119 389.5717,72.2719 392.6197,78.1519 C 392.8217,78.5529 393.0227,78.9539 393.2237,79.3559 L 378.6027,86.8919 C 378.4157,86.5249 378.2287,86.1579 378.0417,85.7909 C 375.7907,81.5349 373.5547,77.5669 370.5557,73.7969 C 367.1877,70.7529 364.3057,68.8339 359.8657,67.7919 C 355.6477,68.2189 352.5937,70.0359 349.0727,72.3579 C 345.0537,75.7739 341.8827,79.8009 338.5597,83.8929 C 333.6617,90.0999 328.8327,96.3119 324.3247,102.8079 C 322.5337,105.8579 318.8547,116.4539 320.3857,108.4049 L 303.3957,108.4049 z "
     id="path590"
     style="fill:#000000;fill-opacity:1;fill-rule:nonzero;stroke:none;stroke-width:1pt;stroke-linecap:butt;stroke-linejoin:miter;stroke-opacity:1" />
  <path
     d="M 357.1887,161.0559 C 355.0967,163.6129 363.3037,154.3219 364.8537,152.6739 C 370.8597,146.3819 376.8117,140.0569 382.6227,133.5849 C 387.8097,128.0569 392.7557,123.3959 399.2327,119.4439 C 406.3507,116.6189 411.8987,115.6099 419.5437,116.2629 C 427.8747,119.3099 433.2357,123.3299 439.2817,129.7999 C 442.3597,134.1299 444.6767,138.3319 446.7147,143.2369 L 431.3097,148.9369 C 430.0847,145.8249 428.6787,143.1859 426.7717,140.4389 C 423.5897,136.9839 420.7557,134.3549 416.3827,132.5849 C 412.8807,132.1889 410.0167,133.0619 406.7277,134.2849 C 401.9777,137.0609 398.4057,140.6869 394.5977,144.6409 C 388.6787,151.1049 382.6417,157.4559 376.6887,163.8879 C 374.0347,166.9379 371.5437,170.0859 369.1377,173.2529 L 357.1887,161.0559 z "
     id="path592"
     style="fill:#000000;fill-opacity:1;fill-rule:nonzero;stroke:none;stroke-width:1pt;stroke-linecap:butt;stroke-linejoin:miter;stroke-opacity:1" />
  <path
     d="M 78.1187,283.2589 C 76.9617,283.0629 71.4197,283.6789 68.8777,283.8929 C 60.0207,284.7889 51.184,285.8399 42.3492,286.9359 C 35.7831,287.8839 29.5287,288.6839 23.4093,291.2809 C 20.4235,293.3179 19.4037,294.7269 18.4436,298.2129 C 17.9956,303.7629 18.2837,309.3579 18.2313,314.9309 C 17.8486,320.8509 17.0389,326.5539 15.9521,332.3849 L 0,329.1079 C 0.8589,324.2649 1.5458,319.4999 1.8747,314.5929 C 1.9156,307.9369 1.6812,301.4019 2.3263,294.7769 C 5.0727,285.9829 8.4652,281.4859 16.1671,276.4129 C 24.1458,273.2049 31.8325,271.9329 40.3456,270.7919 C 49.2848,269.7049 58.2247,268.6259 67.1607,267.5179 C 70.8127,267.0519 74.4607,266.4789 78.1187,266.0949 L 78.1187,283.2589 z "
     id="path579"
     style="fill:#000000;fill-opacity:1;fill-rule:nonzero;stroke:none;stroke-width:1pt;stroke-linecap:butt;stroke-linejoin:miter;stroke-opacity:1" />
  <path
     d="M 110.6187,332.0089 C 117.0087,330.8049 108.8667,334.2399 106.4937,335.8049 C 98.7407,341.2859 91.0787,346.8859 83.2747,352.2939 C 75.9247,357.0639 68.5567,361.1609 60.5937,364.8149 C 57.6859,366.1479 55.5704,366.4429 55.3694,368.5169 C 55.2076,374.7449 57.2551,379.6569 59.6697,385.3649 C 62.7257,391.4989 65.6977,397.6079 68.3617,403.9239 L 53.1615,410.0979 C 50.7383,404.0199 47.9593,398.1819 45.081,392.3069 C 41.1332,383.0689 38.8735,375.6239 39.1791,365.5509 C 42.2822,356.5409 45.566,353.3849 54.2175,349.5959 C 61.3077,346.4959 67.8087,342.9759 74.3357,338.8169 C 82.1047,333.4749 89.6727,327.9009 97.2317,322.2659 C 101.7197,319.0189 105.2627,316.1859 110.6187,314.8449 L 110.6187,332.0089 z "
     id="path580"
     style="fill:#000000;fill-opacity:1;fill-rule:nonzero;stroke:none;stroke-width:1pt;stroke-linecap:butt;stroke-linejoin:miter;stroke-opacity:1" />
  <path
     d="M 171.6357,367.1989 C 169.4147,373.9559 165.1517,377.6799 160.2607,383.0019 C 152.0977,391.9499 143.8947,400.3879 134.7007,408.2829 C 129.2387,412.6749 123.4107,416.7489 119.1227,422.3299 C 117.8537,425.5379 117.5387,428.7149 117.3957,432.1519 C 118.3467,436.3549 121.4357,438.6039 124.5577,441.4159 C 130.2497,445.5639 136.1917,449.2419 142.1217,453.0379 L 133.1127,466.7729 C 126.8697,462.5669 120.5347,458.5609 114.4397,454.1389 C 106.8987,447.3889 102.6967,442.4129 100.8737,432.3729 C 101.2287,425.2329 102.3687,419.5429 105.3887,413.0519 C 111.0187,406.2219 117.7547,401.1899 124.7347,395.7589 C 133.3227,388.4979 140.8207,380.7009 148.2607,372.2739 C 150.9947,369.0119 156.9697,357.7319 154.6457,367.1989 L 171.6357,367.1989 z "
     id="path581"
     style="fill:#000000;fill-opacity:1;fill-rule:nonzero;stroke:none;stroke-width:1pt;stroke-linecap:butt;stroke-linejoin:miter;stroke-opacity:1" />
  <path
     d="M 190 164.375 A 60 60.625 0 1 1  70,164.375 A 60 60.625 0 1 1  190 164.375 z"
     id="path595"
     sodipodi:cx="130"
     sodipodi:cy="164.375"
     sodipodi:rx="60"
     sodipodi:ry="60.625"
     sodipodi:type="arc"
     style="fill:#000500;fill-opacity:1;fill-rule:evenodd;stroke:none;stroke-width:1pt;stroke-linecap:butt;stroke-linejoin:miter;stroke-opacity:1"
     transform="translate(-33.1093,-65.3231)" />
  <path
     d="M 456.25 306.875 A 160.625 170.625 0 1 1  135,306.875 A 160.625 170.625 0 1 1  456.25 306.875 z"
     id="path583"
     sodipodi:cx="295.625"
     sodipodi:cy="306.875"
     sodipodi:rx="160.625"
     sodipodi:ry="170.625"
     sodipodi:type="arc"
     style="fill:url(#radialGradient577);fill-opacity:1;fill-rule:evenodd;stroke:none;stroke-width:1pt;stroke-linecap:butt;stroke-linejoin:miter;stroke-opacity:1"
     transform="matrix(0.896711,-0.501124,0.539658,0.965664,-203.8071,90.2333)" />
  <path
     d="M 135.6407,145.9269 L 343.1407,378.4269"
     id="path584"
     style="fill:none;fill-opacity:1;fill-rule:evenodd;stroke:#000000;stroke-width:1pt;stroke-linecap:butt;stroke-linejoin:miter;stroke-opacity:1" />
  <path
     d="M 325 198.125 A 40.625 40.625 0 1 1  243.75,198.125 A 40.625 40.625 0 1 1  325 198.125 z"
     id="path585"
     sodipodi:cx="284.375"
     sodipodi:cy="198.125"
     sodipodi:rx="40.625"
     sodipodi:ry="40.625"
     sodipodi:type="arc"
     style="fill:#000001;fill-opacity:1;fill-rule:evenodd;stroke:none;stroke-width:1pt;stroke-linecap:butt;stroke-linejoin:miter;stroke-opacity:1"
     transform="translate(-58.1093,-59.0731)" />
  <path
     d="M 415 228.125 A 25.625 26.875 0 1 1  363.75,228.125 A 25.625 26.875 0 1 1  415 228.125 z"
     id="path586"
     sodipodi:cx="389.375"
     sodipodi:cy="228.125"
     sodipodi:rx="25.625"
     sodipodi:ry="26.875"
     sodipodi:type="arc"
     style="fill:#000101;fill-opacity:1;fill-rule:evenodd;stroke:none;stroke-width:1pt;stroke-linecap:butt;stroke-linejoin:miter;stroke-opacity:1"
     transform="translate(-76.8593,-44.0731)" />
  <path
     d="M 421.25 351.25 A 37.5 37.5 0 1 1  346.25,351.25 A 37.5 37.5 0 1 1  421.25 351.25 z"
     id="path587"
     sodipodi:cx="383.75"
     sodipodi:cy="351.25"
     sodipodi:rx="37.5"
     sodipodi:ry="37.5"
     sodipodi:type="arc"
     style="fill:#000101;fill-opacity:1;fill-rule:evenodd;stroke:none;stroke-width:1pt;stroke-linecap:butt;stroke-linejoin:miter;stroke-opacity:1"
     transform="translate(-41.8593,-50.3231)" />
  <path
     d="M 333.75 423.75 A 26.875 27.5 0 1 1  280,423.75 A 26.875 27.5 0 1 1  333.75 423.75 z"
     id="path588"
     sodipodi:cx="306.875"
     sodipodi:cy="423.75"
     sodipodi:rx="26.875"
     sodipodi:ry="27.5"
     sodipodi:type="arc"
     style="fill:#000101;fill-opacity:1;fill-rule:evenodd;stroke:none;stroke-width:1pt;stroke-linecap:butt;stroke-linejoin:miter;stroke-opacity:1"
     transform="translate(-41.8593,-50.3231)" />
  <path
     d="M 247.5 385 A 40 41.25 0 1 1  167.5,385 A 40 41.25 0 1 1  247.5 385 z"
     id="path589"
     sodipodi:cx="207.5"
     sodipodi:cy="385"
     sodipodi:rx="40"
     sodipodi:ry="41.25"
     sodipodi:type="arc"
     style="fill:#000101;fill-opacity:1;fill-rule:evenodd;stroke:none;stroke-width:1pt;stroke-linecap:butt;stroke-linejoin:miter;stroke-opacity:1"
     transform="translate(-35.6093,-56.5731)" />
  <path
     d="M 177.5 256.25 A 28.75 28.75 0 1 1  120,256.25 A 28.75 28.75 0 1 1  177.5 256.25 z"
     id="path591"
     sodipodi:cx="148.75"
     sodipodi:cy="256.25"
     sodipodi:rx="28.75"
     sodipodi:ry="28.75"
     sodipodi:type="arc"
     style="fill:#000101;fill-opacity:1;fill-rule:evenodd;stroke:none;stroke-width:1pt;stroke-linecap:butt;stroke-linejoin:miter;stroke-opacity:1"
     transform="translate(-36.8593,-30.3231)" />
  <path
     d="M 45.94266,81.875 C 53.44266,56.0417 37.19266,38.9583 23.44266,26.875"
     id="path597"
     sodipodi:nodetypes="cs"
     style="fill:none;fill-opacity:1;fill-rule:evenodd;stroke:#000000;stroke-width:3.75;stroke-linecap:butt;stroke-linejoin:miter;stroke-dasharray:none;stroke-opacity:1" />
  <path
     d="M 72.19265,56.875 C 79.69265,31.0417 63.44265,13.9583 49.69265,1.875"
     id="path599"
     sodipodi:nodetypes="cs"
     style="fill:none;fill-opacity:1;fill-rule:evenodd;stroke:#000000;stroke-width:3.75;stroke-linecap:butt;stroke-linejoin:miter;stroke-dasharray:none;stroke-opacity:1" />
  <path
     d="M 331.25 353.75 A 64.375 66.25 0 1 1  202.5,353.75 A 64.375 66.25 0 1 1  331.25 353.75 z"
     id="path578"
     sodipodi:cx="266.875"
     sodipodi:cy="353.75"
     sodipodi:rx="64.375"
     sodipodi:ry="66.25"
     sodipodi:type="arc"
     style="fill:url(#radialGradient572);fill-opacity:1;fill-rule:evenodd;stroke:none;stroke-width:1pt;stroke-linecap:butt;stroke-linejoin:miter;stroke-opacity:1"
     transform="matrix(0.847845,-0.507279,1.469845,1.524748,-483.7113,-190.5724)" />
</svg>
