<?xml version="1.0" encoding="UTF-8" standalone="no"?>
<!-- Created with Inkscape (http://www.inkscape.org/) -->

<svg
   xmlns:dc="http://purl.org/dc/elements/1.1/"
   xmlns:cc="http://creativecommons.org/ns#"
   xmlns:rdf="http://www.w3.org/1999/02/22-rdf-syntax-ns#"
   xmlns:svg="http://www.w3.org/2000/svg"
   xmlns="http://www.w3.org/2000/svg"
   xmlns:sodipodi="http://sodipodi.sourceforge.net/DTD/sodipodi-0.dtd"
   xmlns:inkscape="http://www.inkscape.org/namespaces/inkscape"
   width="6.8574629mm"
   height="8.0046787mm"
   viewBox="0 0 6.8574629 8.0046788"
   version="1.1"
   id="svg8"
   inkscape:version="0.92.4 (5da689c313, 2019-01-14)"
   sodipodi:docname="15.svg">
  <defs
     id="defs2" />
  <sodipodi:namedview
     id="base"
     pagecolor="#ffffff"
     bordercolor="#666666"
     borderopacity="1.0"
     inkscape:pageopacity="0.0"
     inkscape:pageshadow="2"
     inkscape:zoom="0.7"
     inkscape:cx="368.57433"
     inkscape:cy="-346.48968"
     inkscape:document-units="mm"
     inkscape:current-layer="layer1"
     showgrid="false"
     fit-margin-top="0"
     fit-margin-left="0"
     fit-margin-right="0"
     fit-margin-bottom="0"
     inkscape:window-width="1565"
     inkscape:window-height="882"
     inkscape:window-x="0"
     inkscape:window-y="0"
     inkscape:window-maximized="1" />
  <metadata
     id="metadata5">
    <rdf:RDF>
      <cc:Work
         rdf:about="">
        <dc:format>image/svg+xml</dc:format>
        <dc:type
           rdf:resource="http://purl.org/dc/dcmitype/StillImage" />
        <dc:title></dc:title>
      </cc:Work>
    </rdf:RDF>
  </metadata>
  <g
     inkscape:label="Calque 1"
     inkscape:groupmode="layer"
     id="layer1"
     transform="translate(-9.7590938,-33.59193)">
    <g
       aria-label="€"
       transform="matrix(0.26458333,0,0,0.26458333,19.410184,37.375162)"
       style="font-style:normal;font-weight:normal;font-size:40px;line-height:125%;font-family:sans-serif;letter-spacing:0px;word-spacing:0px;fill:#000000;fill-opacity:1;stroke:none;stroke-width:1px;stroke-linecap:butt;stroke-linejoin:miter;stroke-opacity:1"
       id="flowRoot845">
      <path
         d="m -10.558594,13.787109 q -1.855469,1.074219 -3.886719,1.621094 -2.011718,0.546875 -4.199218,0.546875 -5.117188,0 -8.632813,-2.539062 -3.496093,-2.558594 -4.960937,-7.3437504 h -4.238281 l 1.71875,-3.8085937 h 1.914062 q -0.01953,-0.2734375 -0.03906,-0.5664063 0,-0.3125 0,-0.85937497 0,-0.56640625 0,-0.87890625 0.01953,-0.31250001 0.03906,-0.60546875 h -3.632812 l 1.71875,-3.80859373 h 2.519531 q 1.503906,-4.8046875 4.980469,-7.3242189 3.496093,-2.519531 8.613281,-2.519531 2.1875,0 4.199218,0.546875 2.03125,0.546875 3.886719,1.621094 v 6.0351559 q -1.582031,-1.5234375 -3.378906,-2.2851563 -1.796875,-0.78125 -3.730469,-0.78125 -2.480468,0 -4.238281,1.2109375 -1.738281,1.1914063 -2.617187,3.4960938 h 10.527343 l -1.679687,3.80859373 h -9.628906 q -0.03906,0.31249999 -0.05859,0.6640625 0,0.3515625 0,1.05468747 0,0.2539063 0,0.5664063 0.01953,0.2929687 0.03906,0.625 h 8.378907 l -1.738282,3.8085937 h -5.839843 q 0.976562,2.3828125 2.675781,3.5742188 1.71875,1.1914066 4.179687,1.1914066 1.933594,0 3.691406,-0.761719 1.777344,-0.7812501 3.417969,-2.3242189 z"
         style="font-style:normal;font-variant:normal;font-weight:bold;font-stretch:normal;font-size:40px;font-family:sans-serif;-inkscape-font-specification:'sans-serif, Bold';font-variant-ligatures:normal;font-variant-caps:normal;font-variant-numeric:normal;font-feature-settings:normal;text-align:start;writing-mode:lr-tb;text-anchor:start"
         id="path1117"
         inkscape:connector-curvature="0" />
    </g>
  </g>
</svg>
